(lp0
(I217309308
I36250576956
tp1
a(I218945908
I38185700220
tp2
a(I219268304
I41810795612
tp3
a(I221673315
I36933158076
tp4
a(I224161102
I42742390444
tp5
a(I228976571
I41749644172
tp6
a(I232974215
I40636415796
tp7
a(I246146625
I42849380676
tp8
a(I254702534
I46371373660
tp9
a(I258665876
I38666333820
tp10
a(I262264567
I45431914932
tp11
a(I269156889
I32593666800
tp12
a(I271714616
I40545352380
tp13
a(I272931383
I47203964340
tp14
a(I274446458
I43134309292
tp15
a(I274886536
I33258305852
tp16
a(I276083575
I37908459576
tp17
a(I277012788
I47987916060
tp18
a(I280388978
I31637817300
tp19
a(I280489841
I36089567960
tp20
a(I295890724
I40382063244
tp21
a(I305929198
I41738461812
tp22
a(I307093052
I39435346124
tp23
a(I307124332
I39423564844
tp24
a(I310262408
I37330587004
tp25
a(I310607447
I37272586408
tp26
a(I316075152
I51876536316
tp27
a(I316404432
I51996176796
tp28
a(I317331779
I35596319808
tp29
a(I317891416
I30460877948
tp30
a(I320199271
I41076177280
tp31
a(I324001320
I28399658556
tp32
a(I328335196
I31406045708
tp33
a(I329962180
I36878037996
tp34
a(I333200612
I40038398668
tp35
a(I335993333
I44362954300
tp36
a(I338699592
I40629300348
tp37
a(I341863968
I35542204476
tp38
a(I344223614
I41348386900
tp39
a(I345281437
I41345814368
tp40
a(I346201212
I41369892588
tp41
a(I346684079
I38558723088
tp42
a(I347236759
I48673966900
tp43
a(I348310690
I38910722196
tp44
a(I348596367
I33219028320
tp45
a(I349104242
I41820579748
tp46
a(I351398155
I36464303176
tp47
a(I353037148
I33643240172
tp48
a(I354913785
I39623856456
tp49
a(I355537167
I46734969372
tp50
a(I355550868
I32612964060
tp51
a(I357539840
I45612447836
tp52
a(I358163426
I30008881756
tp53
a(I358337426
I29881861756
tp54
a(I361006056
I31617676380
tp55
a(I361726805
I46147291496
tp56
a(I367016045
I48204265756
tp57
a(I367169767
I23147028576
tp58
a(I372017501
I51883232132
tp59
a(I374264195
I41713700736
tp60
a(I375847605
I44855854176
tp61
a(I376471997
I46485467316
tp62
a(I377593752
I28350572700
tp63
a(I378712131
I39019125096
tp64
a(I378754379
I39199925576
tp65
a(I379410679
I35955669344
tp66
a(I379811059
I36267105104
tp67
a(I380433000
I37799075676
tp68
a(I380905661
I31734300556
tp69
a(I381159353
I42360102120
tp70
a(I381198500
I47036987676
tp71
a(I384940972
I32041465436
tp72
a(I386768528
I28995246012
tp73
a(I387190397
I39980887376
tp74
a(I390398860
I43471904556
tp75
a(I390442360
I32512896476
tp76
a(I391221362
I43545074772
tp77
a(I393638069
I46829903680
tp78
a(I393664712
I46911294268
tp79
a(I394176373
I40695144976
tp80
a(I394292565
I37536763656
tp81
a(I394836070
I36007421836
tp82
a(I395313891
I45376087788
tp83
a(I395663335
I29702627796
tp84
a(I396005364
I44077406988
tp85
a(I396092982
I58263851964
tp86
a(I396735165
I36123246516
tp87
a(I398088289
I33093250796
tp88
a(I399804216
I49175713596
tp89
a(I401052285
I38158657896
tp90
a(I401330191
I33321282956
tp91
a(I403418693
I44768426520
tp92
a(I403448741
I41524106096
tp93
a(I409363711
I33963964556
tp94
a(I414178766
I57586094732
tp95
a(I415572636
I42591490476
tp96
a(I415862477
I31172626020
tp97
a(I415869727
I22824433480
tp98
a(I426737813
I40313830792
tp99
a(I429912599
I46082377972
tp100
a(I429951248
I28633471868
tp101
a(I433519041
I47967968424
tp102
a(I434280245
I20048597656
tp103
a(I435960570
I37721870436
tp104
a(I436678721
I23906501168
tp105
a(I436684044
I44914592076
tp106
a(I437742116
I39767493884
tp107
a(I438966765
I34509386136
tp108
a(I440257253
I29230416188
tp109
a(I441148995
I32847999636
tp110
a(I441220421
I34618023992
tp111
a(I444211507
I43906152348
tp112
a(I446319419
I38592013752
tp113
a(I446797665
I26137261236
tp114
a(I446811775
I42207615296
tp115
a(I449356681
I31512181184
tp116
a(I451125084
I46343036076
tp117
a(I453803220
I41118231036
tp118
a(I454108300
I52090657276
tp119
a(I454560160
I24836335996
tp120
a(I454618025
I24678429296
tp121
a(I454931358
I53794920084
tp122
a(I455278735
I11835636516
tp123
a(I456300572
I46876244876
tp124
a(I458686921
I24925647568
tp125
a(I459794160
I21222255036
tp126
a(I460124506
I47191933156
tp127
a(I460832665
I21205309256
tp128
a(I461310668
I37943395996
tp129
a(I462336221
I32492815024
tp130
a(I464437034
I56931651756
tp131
a(I465166268
I47700174476
tp132
a(I468931392
I36884973468
tp133
a(I470114161
I31062958300
tp134
a(I470989166
I31154594300
tp135
a(I472806560
I44744391196
tp136
a(I473626528
I44741528252
tp137
a(I473966301
I40851461280
tp138
a(I474628270
I58185920076
tp139
a(I475105836
I31429405500
tp140
a(I475412992
I54363097660
tp141
a(I475448904
I25922550684
tp142
a(I475649175
I35187007476
tp143
a(I476518128
I48705764796
tp144
a(I478385828
I39246768796
tp145
a(I483320801
I31908183260
tp146
a(I483502357
I33834087152
tp147
a(I484409914
I55245222364
tp148
a(I484589328
I22281922428
tp149
a(I491041461
I32402305500
tp150
a(I493726320
I26712060636
tp151
a(I494154014
I56462092124
tp152
a(I496447452
I38913554028
tp153
a(I497337874
I56755793884
tp154
a(I498344112
I46952905980
tp155
a(I498872361
I22894715880
tp156
a(I498872361
I24890205324
tp157
a(I498939816
I52990672860
tp158
a(I498988361
I14884686104
tp159
a(I500486040
I23059677756
tp160
a(I505485156
I33467641980
tp161
a(I508444130
I43798894596
tp162
a(I509030988
I41709725916
tp163
a(I511247708
I41828739196
tp164
a(I513950974
I40145546020
tp165
a(I514779302
I48429558340
tp166
a(I517113168
I56819809020
tp167
a(I517623842
I44565925284
tp168
a(I518519676
I23806177740
tp169
a(I518634540
I44474248236
tp170
a(I518841232
I55029350684
tp171
a(I518841232
I55029350684
tp172
a(I519131004
I48782934924
tp173
a(I519362808
I48799945212
tp174
a(I519988161
I15472680504
tp175
a(I519988161
I15472680504
tp176
a(I527824294
I34725086812
tp177
a(I528360180
I30599457756
tp178
a(I529011226
I41149185172
tp179
a(I529024174
I49583236004
tp180
a(I530421706
I41256381652
tp181
a(I531338028
I32757908556
tp182
a(I531338028
I47635373340
tp183
a(I532176082
I49936102100
tp184
a(I532754808
I34942614588
tp185
a(I533372722
I50061852980
tp186
a(I533885060
I45857632716
tp187
a(I534335614
I52256210940
tp188
a(I537911674
I31114365740
tp189
a(I538377334
I46215008052
tp190
a(I539635476
I24735272940
tp191
a(I540584808
I46349390748
tp192
a(I540752614
I39862860204
tp193
a(I541779996
I46371486540
tp194
a(I542137296
I13986947100
tp195
a(I543067536
I46526619900
tp196
a(I543198588
I24731384748
tp197
a(I543750172
I35775913564
tp198
a(I544268868
I46643191788
tp199
a(I544499988
I35756946108
tp200
a(I544842000
I44464986876
tp201
a(I545055352
I24911358044
tp202
a(I545680428
I51127206252
tp203
a(I545929716
I62006095068
tp204
a(I547154854
I57864096812
tp205
a(I547466376
I25048512540
tp206
a(I548524248
I55714391676
tp207
a(I549413684
I36122718332
tp208
a(I549656674
I47115492612
tp209
a(I549720888
I40457530812
tp210
a(I552094536
I47269227900
tp211
a(I552326196
I47288687340
tp212
a(I553400256
I36248263260
tp213
a(I553808206
I31941931532
tp214
a(I554807856
I47434506780
tp215
a(I556351368
I36515434428
tp216
a(I558854256
I36659959260
tp217
a(I559212456
I14334110940
tp218
a(I561465156
I36748756860
tp219
a(I562535436
I36879894780
tp220
a(I562883748
I36839546748
tp221
a(I563116680
I48132447996
tp222
a(I564186216
I36985544700
tp223
a(I564189840
I36985776636
tp224
a(I564737632
I25746058364
tp225
a(I565509576
I52810547868
tp226
a(I565658674
I32511597740
tp227
a(I566454036
I37115025180
tp228
a(I567754670
I21340835796
tp229
a(I568226688
I41742968412
tp230
a(I570195412
I37343128924
tp231
a(I570369216
I37349936700
tp232
a(I571001614
I21375110100
tp233
a(I571392052
I26007532844
tp234
a(I571908936
I37417158780
tp235
a(I572799652
I26069467244
tp236
a(I574793854
I21542950740
tp237
a(I577020756
I26203900140
tp238
a(I577470948
I37757467548
tp239
a(I578946454
I37887285052
tp240
a(I582349836
I26422719660
tp241
a(I582350916
I33410978172
tp242
a(I582475656
I38046448860
tp243
a(I582583836
I38084692380
tp244
a(I582863254
I21802129140
tp245
a(I583763196
I38160171420
tp246
a(I583997736
I38175181980
tp247
a(I586774474
I26621468852
tp248
a(I587911116
I33706689372
tp249
a(I590414736
I38554549980
tp250
a(I591594096
I14966265180
tp251
a(I591822336
I50481083100
tp252
a(I591828096
I38645005020
tp253
a(I594095916
I26892567180
tp254
a(I595740396
I38879732220
tp255
a(I595745628
I26965154508
tp256
a(I595746708
I22199228364
tp257
a(I597047928
I26991135708
tp258
a(I599424996
I15122886780
tp259
a(I599424996
I27111386700
tp260
a(I599550816
I27085602780
tp261
a(I606354334
I10426761340
tp262
a(I607491708
I15285167868
tp263
a(I609991716
I15329508060
tp264
a(I611171076
I15357812700
tp265
a(I615321876
I10519196892
tp266
a(I619233096
I15519981180
tp267
a(I619233096
I15519981180
tp268
a(I619233096
I15519981180
tp269
a(I619233096
I15519981180
tp270
a(I619233096
I15519981180
tp271
a(I619235976
I15520050300
tp272
a(I627066876
I3135334380
tp273
a.