ccopy_reg
_reconstructor
p0
(cdeap.tools.support
Logbook
p1
c__builtin__
list
p2
(lp3
(dp4
S'std'
p5
cnumpy.core.multiarray
_reconstruct
p6
(cnumpy
ndarray
p7
(I0
tp8
S'b'
p9
tp10
Rp11
(I1
(I2
tp12
cnumpy
dtype
p13
(S'f8'
p14
I0
I1
tp15
Rp16
(I3
S'<'
p17
NNNI-1
I-1
I0
tp18
bI00
S'\x1br8\x8d"$9A\x15\xdc\xd1\xc7\x8e=\xa4A'
p19
tp20
bsS'nevals'
p21
I40
sS'min'
p22
g6
(g7
(I0
tp23
g9
tp24
Rp25
(I1
(I2
tp26
g16
I00
S'\x00\x00\x00\x00\x9e\x12YA\x00\x00\x00\x0e2$\xcaA'
p27
tp28
bsS'max'
p29
g6
(g7
(I0
tp30
g9
tp31
Rp32
(I1
(I2
tp33
g16
I00
S'\x00\x00\x00@\xc7\x90lA\x00\x00\x00\xcc\x1e\x93\xd8A'
p34
tp35
bsS'avg'
p36
g6
(g7
(I0
tp37
g9
tp38
Rp39
(I1
(I2
tp40
g16
I00
S'\xcd\xcc\xcc\xf4\x16\x99cA\x00\x00\x80D]\x1b\xd2A'
p41
tp42
bsS'gen'
p43
I0
sa(dp44
g5
g6
(g7
(I0
tp45
g9
tp46
Rp47
(I1
(I2
tp48
g16
I00
S'\xbc\x94\xfdS\xd5;0A1\x05\xfa\xd2\x07\x16\xa0A'
p49
tp50
bsg21
I11
sg22
g6
(g7
(I0
tp51
g9
tp52
Rp53
(I1
(I2
tp54
g16
I00
S'\x00\x00\x00\x00\x9e\x12YA\x00\x00\x00\x0e2$\xcaA'
p55
tp56
bsg29
g6
(g7
(I0
tp57
g9
tp58
Rp59
(I1
(I2
tp60
g16
I00
S'\x00\x00\x00\x80\xb2\xe8dA\x00\x00\x00|\xd9\xd5\xd3A'
p61
tp62
bsg36
g6
(g7
(I0
tp63
g9
tp64
Rp65
(I1
(I2
tp66
g16
I00
S'\x00\x00\x00\xb0\x88\x07bA\x00\x00\xc0\tj\x0e\xd1A'
p67
tp68
bsg43
I1
sa(dp69
g5
g6
(g7
(I0
tp70
g9
tp71
Rp72
(I1
(I2
tp73
g16
I00
S'p\x1e2\xcd\x8b\x18/AZ\x07\x13\x93\xdf\xa7\x9bA'
p74
tp75
bsg21
I11
sg22
g6
(g7
(I0
tp76
g9
tp77
Rp78
(I1
(I2
tp79
g16
I00
S'\x00\x00\x00\x00\x9e\x12YA\x00\x00\x00\x0e2$\xcaA'
p80
tp81
bsg29
g6
(g7
(I0
tp82
g9
tp83
Rp84
(I1
(I2
tp85
g16
I00
S'\x00\x00\x00@:\xb2dA\x00\x00\x00r\xa4\xe9\xd2A'
p86
tp87
bsg36
g6
(g7
(I0
tp88
g9
tp89
Rp90
(I1
(I2
tp91
g16
I00
S'\x9a\x99\x99I\nvaA\x00\x00`\xf2\xd1Y\xd0A'
p92
tp93
bsg43
I2
sa(dp94
g5
g6
(g7
(I0
tp95
g9
tp96
Rp97
(I1
(I2
tp98
g16
I00
S"\x98y\x87\xb2VN'At\xed\xb0\xda{\x87\x97A"
p99
tp100
bsg21
I11
sg22
g6
(g7
(I0
tp101
g9
tp102
Rp103
(I1
(I2
tp104
g16
I00
S'\x00\x00\x00\x00\x9e\x12YA\x00\x00\x00\x0e2$\xcaA'
p105
tp106
bsg29
g6
(g7
(I0
tp107
g9
tp108
Rp109
(I1
(I2
tp110
g16
I00
S'\x00\x00\x00\x80:\x08bA\x00\x00\x00\x86\xde\x95\xd1A'
p111
tp112
bsg36
g6
(g7
(I0
tp113
g9
tp114
Rp115
(I1
(I2
tp116
g16
I00
S'fff\x96\xf8\x90`A\x9a\x99\x19-\xfd\x0f\xcfA'
p117
tp118
bsg43
I3
sa(dp119
g5
g6
(g7
(I0
tp120
g9
tp121
Rp122
(I1
(I2
tp123
g16
I00
S"\xf7I\x96\x86\x97\x8f'A}Uk\x08\xe6\xe5\x96A"
p124
tp125
bsg21
I13
sg22
g6
(g7
(I0
tp126
g9
tp127
Rp128
(I1
(I2
tp129
g16
I00
S'\x00\x00\x00\x00\x9e\x12YA\x00\x00\x00j5\xbc\xc9A'
p130
tp131
bsg29
g6
(g7
(I0
tp132
g9
tp133
Rp134
(I1
(I2
tp135
g16
I00
S'\x00\x00\x00@\x06\xdfaA\x00\x00\x00p\xb7\x1e\xd1A'
p136
tp137
bsg36
g6
(g7
(I0
tp138
g9
tp139
Rp140
(I1
(I2
tp141
g16
I00
S'\xcd\xcc\xcc\xac\x9b\xc8_Aff&\x82\x94\xc8\xcdA'
p142
tp143
bsg43
I4
sa(dp144
g5
g6
(g7
(I0
tp145
g9
tp146
Rp147
(I1
(I2
tp148
g16
I00
S'\x7f.p\x07y\xe7$AG\xe9\x16m:*\x94A'
p149
tp150
bsg21
I10
sg22
g6
(g7
(I0
tp151
g9
tp152
Rp153
(I1
(I2
tp154
g16
I00
S'\x00\x00\x00\x00\x9e\x12YA\x00\x00\x00j5\xbc\xc9A'
p155
tp156
bsg29
g6
(g7
(I0
tp157
g9
tp158
Rp159
(I1
(I2
tp160
g16
I00
S'\x00\x00\x00@\x06\xdfaA\x00\x00\x00\x07\xf9U\xd0A'
p161
tp162
bsg36
g6
(g7
(I0
tp163
g9
tp164
Rp165
(I1
(I2
tp166
g16
I00
S'\x00\x00\x00P\xdeC_A\x00\x00\x80\xa0\xd9;\xcdA'
p167
tp168
bsg43
I5
sa(dp169
g5
g6
(g7
(I0
tp170
g9
tp171
Rp172
(I1
(I2
tp173
g16
I00
S"'_h\xab\x17V$AF7\x8a\x15Q_\x91A"
p174
tp175
bsg21
I13
sg22
g6
(g7
(I0
tp176
g9
tp177
Rp178
(I1
(I2
tp179
g16
I00
S'\x00\x00\x00\x00\x9e\x12YA\x00\x00\x00j5\xbc\xc9A'
p180
tp181
bsg29
g6
(g7
(I0
tp182
g9
tp183
Rp184
(I1
(I2
tp185
g16
I00
S'\x00\x00\x00@\x06\xdfaA\x00\x00\x00\x07\xf9U\xd0A'
p186
tp187
bsg36
g6
(g7
(I0
tp188
g9
tp189
Rp190
(I1
(I2
tp191
g16
I00
S'\xcd\xcc\xcc,\xbb|^A33\xb3\xf3Wr\xccA'
p192
tp193
bsg43
I6
sa(dp194
g5
g6
(g7
(I0
tp195
g9
tp196
Rp197
(I1
(I2
tp198
g16
I00
S'\x06S\x84\xbc&\xe9\x1aA\xdf\xf0;5\x87)\x82A'
p199
tp200
bsg21
I9
sg22
g6
(g7
(I0
tp201
g9
tp202
Rp203
(I1
(I2
tp204
g16
I00
S'\x00\x00\x00\x00\x9e\x12YA\x00\x00\x00j5\xbc\xc9A'
p205
tp206
bsg29
g6
(g7
(I0
tp207
g9
tp208
Rp209
(I1
(I2
tp210
g16
I00
S'\x00\x00\x00@s\x15`A\x00\x00\x00\xf0\xa7\x81\xcfA'
p211
tp212
bsg36
g6
(g7
(I0
tp213
g9
tp214
Rp215
(I1
(I2
tp216
g16
I00
S'fff\x06\x88\xae\\A\x00\x00\xc0\xfb\xfe\xec\xcaA'
p217
tp218
bsg43
I7
sa(dp219
g5
g6
(g7
(I0
tp220
g9
tp221
Rp222
(I1
(I2
tp223
g16
I00
S'WE\t\xc7) \x1aAf#\x10\xbf\xd3\xcfxA'
p224
tp225
bsg21
I12
sg22
g6
(g7
(I0
tp226
g9
tp227
Rp228
(I1
(I2
tp229
g16
I00
S'\x00\x00\x00\x80\\\x0eYA\x00\x00\x00\x94\xeb\xda\xc8A'
p230
tp231
bsg29
g6
(g7
(I0
tp232
g9
tp233
Rp234
(I1
(I2
tp235
g16
I00
S'\x00\x00\x00\x80\xc2\x06]A\x00\x00\x00Z\xa4i\xccA'
p236
tp237
bsg36
g6
(g7
(I0
tp238
g9
tp239
Rp240
(I1
(I2
tp241
g16
I00
S'\xcd\xcc\xcc\x8c\xaf\x04\\A\x9a\x99\xd9\xce\xbd[\xcaA'
p242
tp243
bsg43
I8
sa(dp244
g5
g6
(g7
(I0
tp245
g9
tp246
Rp247
(I1
(I2
tp248
g16
I00
S'v\r\\\xb7\xc8O A\xa1s{\x9e\x8e\x87\x7fA'
p249
tp250
bsg21
I14
sg22
g6
(g7
(I0
tp251
g9
tp252
Rp253
(I1
(I2
tp254
g16
I00
S'\x00\x00\x00\x00:\xebUA\x00\x00\x00\xd0\xc7\x87\xc4A'
p255
tp256
bsg29
g6
(g7
(I0
tp257
g9
tp258
Rp259
(I1
(I2
tp260
g16
I00
S'\x00\x00\x00\x80\xc2\x06]A\x00\x00\x00hJ\x08\xcbA'
p261
tp262
bsg36
g6
(g7
(I0
tp263
g9
tp264
Rp265
(I1
(I2
tp266
g16
I00
S'fff\xf6-H[A\x9a\x99\xd9\xd0L\xf0\xc9A'
p267
tp268
bsg43
I9
sa(dp269
g5
g6
(g7
(I0
tp270
g9
tp271
Rp272
(I1
(I2
tp273
g16
I00
S'M6\x15\xae+\xc7\x1cAhPP\xc2b\xef\x7fA'
p274
tp275
bsg21
I9
sg22
g6
(g7
(I0
tp276
g9
tp277
Rp278
(I1
(I2
tp279
g16
I00
S'\x00\x00\x00\x00:\xebUA\x00\x00\x00\xd0\xc7\x87\xc4A'
p280
tp281
bsg29
g6
(g7
(I0
tp282
g9
tp283
Rp284
(I1
(I2
tp285
g16
I00
S'\x00\x00\x00\x80\xc2\x06]A\x00\x00\x00hJ\x08\xcbA'
p286
tp287
bsg36
g6
(g7
(I0
tp288
g9
tp289
Rp290
(I1
(I2
tp291
g16
I00
S'\x00\x00\x00@9,ZA\x00\x00\x80q\xa2\xe2\xc9A'
p292
tp293
bsg43
I10
sa(dp294
g5
g6
(g7
(I0
tp295
g9
tp296
Rp297
(I1
(I2
tp298
g16
I00
S'\xe2Kr\xcd\xcfT\x03A\xfe\xc9\xaf{\x9fT\x7fA'
p299
tp300
bsg21
I12
sg22
g6
(g7
(I0
tp301
g9
tp302
Rp303
(I1
(I2
tp304
g16
I00
S'\x00\x00\x00\x00:\xebUA\x00\x00\x00\xd0\xc7\x87\xc4A'
p305
tp306
bsg29
g6
(g7
(I0
tp307
g9
tp308
Rp309
(I1
(I2
tp310
g16
I00
S'\x00\x00\x00\x806\xd6ZA\x00\x00\x00\xf8y\x80\xcaA'
p311
tp312
bsg36
g6
(g7
(I0
tp313
g9
tp314
Rp315
(I1
(I2
tp316
g16
I00
S'fffv\xc3"YA\xcd\xcc\x0c\xe0!\xcd\xc9A'
p317
tp318
bsg43
I11
sa(dp319
g5
g6
(g7
(I0
tp320
g9
tp321
Rp322
(I1
(I2
tp323
g16
I00
S'^,\xf3o\x8c\xa2\x02A\xbcg\xc4\xfe\x82"\x80A'
p324
tp325
bsg21
I11
sg22
g6
(g7
(I0
tp326
g9
tp327
Rp328
(I1
(I2
tp329
g16
I00
S'\x00\x00\x00\x00:\xebUA\x00\x00\x00\xd0\xc7\x87\xc4A'
p330
tp331
bsg29
g6
(g7
(I0
tp332
g9
tp333
Rp334
(I1
(I2
tp335
g16
I00
S'\x00\x00\x00\x80~\xd5ZA\x00\x00\x00\xf8y\x80\xcaA'
p336
tp337
bsg36
g6
(g7
(I0
tp338
g9
tp339
Rp340
(I1
(I2
tp341
g16
I00
S'333\x03{\x11YA\xcd\xcc\xcc\x85\xca\xcf\xc9A'
p342
tp343
bsg43
I12
sa(dp344
g5
g6
(g7
(I0
tp345
g9
tp346
Rp347
(I1
(I2
tp348
g16
I00
S'\x96C\x03\t\x05\xc2\x0bA\xf4\xc3\xb8\t\x9a\xde\x84A'
p349
tp350
bsg21
I9
sg22
g6
(g7
(I0
tp351
g9
tp352
Rp353
(I1
(I2
tp354
g16
I00
S'\x00\x00\x00\x00:\xebUA\x00\x00\x00\xd0\xc7\x87\xc4A'
p355
tp356
bsg29
g6
(g7
(I0
tp357
g9
tp358
Rp359
(I1
(I2
tp360
g16
I00
S'\x00\x00\x00\x80~\xd5ZA\x00\x00\x00\xf8y\x80\xcaA'
p361
tp362
bsg36
g6
(g7
(I0
tp363
g9
tp364
Rp365
(I1
(I2
tp366
g16
I00
S'fffF\x0e\xfcXA\x00\x00\x80\x9d\xcc\x7f\xc9A'
p367
tp368
bsg43
I13
sa(dp369
g5
g6
(g7
(I0
tp370
g9
tp371
Rp372
(I1
(I2
tp373
g16
I00
S'\x9d\xedW[\xca=\x0cA\xdb\xdd\xfa!\xac\xd9\x84A'
p374
tp375
bsg21
I11
sg22
g6
(g7
(I0
tp376
g9
tp377
Rp378
(I1
(I2
tp379
g16
I00
S'\x00\x00\x00\x00:\xebUA\x00\x00\x00\xd0\xc7\x87\xc4A'
p380
tp381
bsg29
g6
(g7
(I0
tp382
g9
tp383
Rp384
(I1
(I2
tp385
g16
I00
S'\x00\x00\x00\x80~\xd5ZA\x00\x00\x00\xf8y\x80\xcaA'
p386
tp387
bsg36
g6
(g7
(I0
tp388
g9
tp389
Rp390
(I1
(I2
tp391
g16
I00
S'fff\xd6\xd8\x03YA\x9a\x99\x19Y!\\\xc9A'
p392
tp393
bsg43
I14
sa(dp394
g5
g6
(g7
(I0
tp395
g9
tp396
Rp397
(I1
(I2
tp398
g16
I00
S'R\xa1&\xfe\xf5<\x12A\xe3\x04\x91\x02T~\x87A'
p399
tp400
bsg21
I12
sg22
g6
(g7
(I0
tp401
g9
tp402
Rp403
(I1
(I2
tp404
g16
I00
S'\x00\x00\x00\x80\x04~UA\x00\x00\x00\xd0\xc7\x87\xc4A'
p405
tp406
bsg29
g6
(g7
(I0
tp407
g9
tp408
Rp409
(I1
(I2
tp410
g16
I00
S'\x00\x00\x00\x80~\xd5ZA\x00\x00\x00\xf8y\x80\xcaA'
p411
tp412
bsg36
g6
(g7
(I0
tp413
g9
tp414
Rp415
(I1
(I2
tp416
g16
I00
S'\x9a\x99\x99\t,\xd8XA33\xb3\xa9\xbd\xc8\xc8A'
p417
tp418
bsg43
I15
sa(dp419
g5
g6
(g7
(I0
tp420
g9
tp421
Rp422
(I1
(I2
tp423
g16
I00
S'5\xe8\x8a\x8bk\x05\x13Ao\xb7g\\c\x9d\x86A'
p424
tp425
bsg21
I13
sg22
g6
(g7
(I0
tp426
g9
tp427
Rp428
(I1
(I2
tp429
g16
I00
S'\x00\x00\x00\x80\x04~UA\x00\x00\x00\xd0\xc7\x87\xc4A'
p430
tp431
bsg29
g6
(g7
(I0
tp432
g9
tp433
Rp434
(I1
(I2
tp435
g16
I00
S'\x00\x00\x00\x80~\xd5ZA\x00\x00\x00\xf8y\x80\xcaA'
p436
tp437
bsg36
g6
(g7
(I0
tp438
g9
tp439
Rp440
(I1
(I2
tp441
g16
I00
S'fff\x86\xee\xaaXA\x9a\x99\x19\xd2\x18s\xc8A'
p442
tp443
bsg43
I16
sa(dp444
g5
g6
(g7
(I0
tp445
g9
tp446
Rp447
(I1
(I2
tp448
g16
I00
S'\x81:\x9d\x08\xb5\xa8\x16A%A\x88\x1f\x9e;\x8cA'
p449
tp450
bsg21
I10
sg22
g6
(g7
(I0
tp451
g9
tp452
Rp453
(I1
(I2
tp454
g16
I00
S'\x00\x00\x00\x80\x04~UA\x00\x00\x00\xd0\xc7\x87\xc4A'
p455
tp456
bsg29
g6
(g7
(I0
tp457
g9
tp458
Rp459
(I1
(I2
tp460
g16
I00
S'\x00\x00\x00\x80\xca\xe9YA\x00\x00\x00\x9c\xad\xfc\xc8A'
p461
tp462
bsg36
g6
(g7
(I0
tp463
g9
tp464
Rp465
(I1
(I2
tp466
g16
I00
S'\x00\x00\x00\x00HYXA\x00\x00\x00\xf3\xf4\xe9\xc7A'
p467
tp468
bsg43
I17
sa(dp469
g5
g6
(g7
(I0
tp470
g9
tp471
Rp472
(I1
(I2
tp473
g16
I00
S'\xad\xedG\x05D"\x1dA\x89\x97\xbc\xf8\xd5\xbf\x91A'
p474
tp475
bsg21
I14
sg22
g6
(g7
(I0
tp476
g9
tp477
Rp478
(I1
(I2
tp479
g16
I00
S'\x00\x00\x00\x80.\xeeQA\x00\x00\x00\x1e\xc5\xf9\xc0A'
p480
tp481
bsg29
g6
(g7
(I0
tp482
g9
tp483
Rp484
(I1
(I2
tp485
g16
I00
S'\x00\x00\x00\x80\xca\xe9YA\x00\x00\x00\x9c\xad\xfc\xc8A'
p486
tp487
bsg36
g6
(g7
(I0
tp488
g9
tp489
Rp490
(I1
(I2
tp491
g16
I00
S'333s\xbf\xdaWA\x00\x00@BHF\xc7A'
p492
tp493
bsg43
I18
sa(dp494
g5
g6
(g7
(I0
tp495
g9
tp496
Rp497
(I1
(I2
tp498
g16
I00
S'\xa7\xf9\x896s\xa8\x1fA?2`\x0b\xfeN\x92A'
p499
tp500
bsg21
I9
sg22
g6
(g7
(I0
tp501
g9
tp502
Rp503
(I1
(I2
tp504
g16
I00
S'\x00\x00\x00\x80.\xeeQA\x00\x00\x00\x1e\xc5\xf9\xc0A'
p505
tp506
bsg29
g6
(g7
(I0
tp507
g9
tp508
Rp509
(I1
(I2
tp510
g16
I00
S'\x00\x00\x00\x80\xca\xe9YA\x00\x00\x00\x9c\xad\xfc\xc8A'
p511
tp512
bsg36
g6
(g7
(I0
tp513
g9
tp514
Rp515
(I1
(I2
tp516
g16
I00
S'\x00\x00\x00@\xd0_WA\x9a\x99Y\xc5\x0e\xb7\xc6A'
p517
tp518
bsg43
I19
sa(dp519
g5
g6
(g7
(I0
tp520
g9
tp521
Rp522
(I1
(I2
tp523
g16
I00
S'"\x10/\x85"O A{\x85\xfbJ\x8b3\x91A'
p524
tp525
bsg21
I11
sg22
g6
(g7
(I0
tp526
g9
tp527
Rp528
(I1
(I2
tp529
g16
I00
S'\x00\x00\x00\x80.\xeeQA\x00\x00\x00\x1e\xc5\xf9\xc0A'
p530
tp531
bsg29
g6
(g7
(I0
tp532
g9
tp533
Rp534
(I1
(I2
tp535
g16
I00
S'\x00\x00\x00\x80\xca\xe9YA\x00\x00\x00\x9c\xad\xfc\xc8A'
p536
tp537
bsg36
g6
(g7
(I0
tp538
g9
tp539
Rp540
(I1
(I2
tp541
g16
I00
S'\x9a\x99\x99i\x0b\\VA\x00\x00\x00(u\x7f\xc5A'
p542
tp543
bsg43
I20
satp544
Rp545
(dp546
S'log_header'
p547
I01
sS'header'
p548
(lp549
g43
ag21
ag36
ag5
ag22
ag29
asS'columns_len'
p550
NsS'buffindex'
p551
I0
sS'chapters'
p552
ccollections
defaultdict
p553
(g1
tp554
Rp555
sb.