ccopy_reg
_reconstructor
p0
(cdeap.tools.support
Logbook
p1
c__builtin__
list
p2
(lp3
(dp4
S'std'
p5
cnumpy.core.multiarray
_reconstruct
p6
(cnumpy
ndarray
p7
(I0
tp8
S'b'
p9
tp10
Rp11
(I1
(I2
tp12
cnumpy
dtype
p13
(S'f8'
p14
I0
I1
tp15
Rp16
(I3
S'<'
p17
NNNI-1
I-1
I0
tp18
bI00
S'a\xe8\x0bQ\x0e]CA`\xa3\xfc\xbf\x91M2@'
p19
tp20
bsS'nevals'
p21
I40
sS'min'
p22
g6
(g7
(I0
tp23
g9
tp24
Rp25
(I1
(I2
tp26
g16
I00
S'\x00\x00\x00\x801YhA\x00\x00\x00\x00\x000\x81@'
p27
tp28
bsS'max'
p29
g6
(g7
(I0
tp30
g9
tp31
Rp32
(I1
(I2
tp33
g16
I00
S'\x00\x00\x00\x00\x1bUxA\x00\x00\x00\x00\x00P\x84@'
p34
tp35
bsS'avg'
p36
g6
(g7
(I0
tp37
g9
tp38
Rp39
(I1
(I2
tp40
g16
I00
S'fffv6<sA\x00\x00\x00\x00\x00\xe8\x82@'
p41
tp42
bsS'gen'
p43
I0
sa(dp44
g5
g6
(g7
(I0
tp45
g9
tp46
Rp47
(I1
(I2
tp48
g16
I00
S'\xea\x1d\xf2t(6>A\xbf\x88\xef@bz,@'
p49
tp50
bsg21
I17
sg22
g6
(g7
(I0
tp51
g9
tp52
Rp53
(I1
(I2
tp54
g16
I00
S'\x00\x00\x00\x801YhA\x00\x00\x00\x00\x00 \x82@'
p55
tp56
bsg29
g6
(g7
(I0
tp57
g9
tp58
Rp59
(I1
(I2
tp60
g16
I00
S'\x00\x00\x00\xc0\xb4\x03uA\x00\x00\x00\x00\x00\xb0\x83@'
p61
tp62
bsg36
g6
(g7
(I0
tp63
g9
tp64
Rp65
(I1
(I2
tp66
g16
I00
S'333{\xf8\x0bqA\x00\x00\x00\x00\x00\xf4\x82@'
p67
tp68
bsg43
I1
sa(dp69
g5
g6
(g7
(I0
tp70
g9
tp71
Rp72
(I1
(I2
tp73
g16
I00
S'yt\xc3$\xd33BAwp\x9b\x96\xa8\xc4)@'
p74
tp75
bsg21
I18
sg22
g6
(g7
(I0
tp76
g9
tp77
Rp78
(I1
(I2
tp79
g16
I00
S'\x00\x00\x00\x801YhA\x00\x00\x00\x00\x00 \x82@'
p80
tp81
bsg29
g6
(g7
(I0
tp82
g9
tp83
Rp84
(I1
(I2
tp85
g16
I00
S'\x00\x00\x00\x001\xcatA\x00\x00\x00\x00\x00\xb0\x83@'
p86
tp87
bsg36
g6
(g7
(I0
tp88
g9
tp89
Rp90
(I1
(I2
tp91
g16
I00
S'fffv\xc31nA\x00\x00\x00\x00\x00\xd8\x82@'
p92
tp93
bsg43
I2
sa(dp94
g5
g6
(g7
(I0
tp95
g9
tp96
Rp97
(I1
(I2
tp98
g16
I00
S'\x1a\xf5.\xdb\x1a\xbf:A\xb6\xc3\xd9\xb5\xa4\x05!@'
p99
tp100
bsg21
I18
sg22
g6
(g7
(I0
tp101
g9
tp102
Rp103
(I1
(I2
tp104
g16
I00
S'\x00\x00\x00\x80 FgA\x00\x00\x00\x00\x00 \x82@'
p105
tp106
bsg29
g6
(g7
(I0
tp107
g9
tp108
Rp109
(I1
(I2
tp110
g16
I00
S'\x00\x00\x00\x80\xac\xcdqA\x00\x00\x00\x00\x00`\x83@'
p111
tp112
bsg36
g6
(g7
(I0
tp113
g9
tp114
Rp115
(I1
(I2
tp116
g16
I00
S'fff6)WjA\x00\x00\x00\x00\x00\xc2\x82@'
p117
tp118
bsg43
I3
sa(dp119
g5
g6
(g7
(I0
tp120
g9
tp121
Rp122
(I1
(I2
tp123
g16
I00
S'(\xcb"\x03v\xbb=A\xa8\xf3\xcf\xbc\xc0\x0e\x1a@'
p124
tp125
bsg21
I25
sg22
g6
(g7
(I0
tp126
g9
tp127
Rp128
(I1
(I2
tp129
g16
I00
S'\x00\x00\x00\x80 FgA\x00\x00\x00\x00\x00p\x82@'
p130
tp131
bsg29
g6
(g7
(I0
tp132
g9
tp133
Rp134
(I1
(I2
tp135
g16
I00
S'\x00\x00\x00\xc0\xc2FtA\x00\x00\x00\x00\x00`\x83@'
p136
tp137
bsg36
g6
(g7
(I0
tp138
g9
tp139
Rp140
(I1
(I2
tp141
g16
I00
S'\x00\x00\x00\x10I\x9biA\x00\x00\x00\x00\x00\xd2\x82@'
p142
tp143
bsg43
I4
sa(dp144
g5
g6
(g7
(I0
tp145
g9
tp146
Rp147
(I1
(I2
tp148
g16
I00
S'\xfarL\x8d\xef\xa0;A\x0c\xb86\xf6\x81? @'
p149
tp150
bsg21
I22
sg22
g6
(g7
(I0
tp151
g9
tp152
Rp153
(I1
(I2
tp154
g16
I00
S'\x00\x00\x00\x80 FgA\x00\x00\x00\x00\x00p\x82@'
p155
tp156
bsg29
g6
(g7
(I0
tp157
g9
tp158
Rp159
(I1
(I2
tp160
g16
I00
S'\x00\x00\x00\xc0\xcaTtA\x00\x00\x00\x00\x00\xb0\x83@'
p161
tp162
bsg36
g6
(g7
(I0
tp163
g9
tp164
Rp165
(I1
(I2
tp166
g16
I00
S'\x00\x00\x00p\xadXiA\x00\x00\x00\x00\x00\xd0\x82@'
p167
tp168
bsg43
I5
sa(dp169
g5
g6
(g7
(I0
tp170
g9
tp171
Rp172
(I1
(I2
tp173
g16
I00
S'VCl\x87\xc295A\x82\x0b\n\x9a\x18q%@'
p174
tp175
bsg21
I19
sg22
g6
(g7
(I0
tp176
g9
tp177
Rp178
(I1
(I2
tp179
g16
I00
S'\x00\x00\x00\x80 FgA\x00\x00\x00\x00\x00 \x82@'
p180
tp181
bsg29
g6
(g7
(I0
tp182
g9
tp183
Rp184
(I1
(I2
tp185
g16
I00
S'\x00\x00\x00\xc0_lrA\x00\x00\x00\x00\x00`\x83@'
p186
tp187
bsg36
g6
(g7
(I0
tp188
g9
tp189
Rp190
(I1
(I2
tp191
g16
I00
S'333c\x05\xc0hA\x00\x00\x00\x00\x00\xea\x82@'
p192
tp193
bsg43
I6
sa(dp194
g5
g6
(g7
(I0
tp195
g9
tp196
Rp197
(I1
(I2
tp198
g16
I00
S"1\xde\x8b\xb7\xf0.3A\xbf'b\x9fHp*@"
p199
tp200
bsg21
I27
sg22
g6
(g7
(I0
tp201
g9
tp202
Rp203
(I1
(I2
tp204
g16
I00
S'\x00\x00\x00\x80[\xb4fA\x00\x00\x00\x00\x00\x80\x81@'
p205
tp206
bsg29
g6
(g7
(I0
tp207
g9
tp208
Rp209
(I1
(I2
tp210
g16
I00
S'\x00\x00\x00\xc0\xe1\x12rA\x00\x00\x00\x00\x00\xb0\x83@'
p211
tp212
bsg36
g6
(g7
(I0
tp213
g9
tp214
Rp215
(I1
(I2
tp216
g16
I00
S'\x9a\x99\x99\xa9n}hA\x00\x00\x00\x00\x00\x0c\x83@'
p217
tp218
bsg43
I7
sa(dp219
g5
g6
(g7
(I0
tp220
g9
tp221
Rp222
(I1
(I2
tp223
g16
I00
S'\xe8\xa6\xa7\x93V\xc10A\t\xf9\x1c\xd1V\xd3!@'
p224
tp225
bsg21
I26
sg22
g6
(g7
(I0
tp226
g9
tp227
Rp228
(I1
(I2
tp229
g16
I00
S'\x00\x00\x00\x80[\xb4fA\x00\x00\x00\x00\x00p\x82@'
p230
tp231
bsg29
g6
(g7
(I0
tp232
g9
tp233
Rp234
(I1
(I2
tp235
g16
I00
S'\x00\x00\x00\x80\x86>qA\x00\x00\x00\x00\x00`\x83@'
p236
tp237
bsg36
g6
(g7
(I0
tp238
g9
tp239
Rp240
(I1
(I2
tp241
g16
I00
S'\xcd\xcc\xcc<u\rhA\x00\x00\x00\x00\x002\x83@'
p242
tp243
bsg43
I8
sa(dp244
g5
g6
(g7
(I0
tp245
g9
tp246
Rp247
(I1
(I2
tp248
g16
I00
S'K\x97E\x84)\x98BA=\x1bce\x85g\x1b@'
p249
tp250
bsg21
I22
sg22
g6
(g7
(I0
tp251
g9
tp252
Rp253
(I1
(I2
tp254
g16
I00
S'\x00\x00\x00\x80[\xb4fA\x00\x00\x00\x00\x00\xc0\x82@'
p255
tp256
bsg29
g6
(g7
(I0
tp257
g9
tp258
Rp259
(I1
(I2
tp260
g16
I00
S'\x00\x00\x00\xc0j\xd8tA\x00\x00\x00\x00\x00`\x83@'
p261
tp262
bsg36
g6
(g7
(I0
tp263
g9
tp264
Rp265
(I1
(I2
tp266
g16
I00
S'\x00\x00\x00 \xe8\xf1hA\x00\x00\x00\x00\x00F\x83@'
p267
tp268
bsg43
I9
sa(dp269
g5
g6
(g7
(I0
tp270
g9
tp271
Rp272
(I1
(I2
tp273
g16
I00
S'\x86\xb2>t\x0375A\x0bv\xe9\x8a\xe0|$@'
p274
tp275
bsg21
I15
sg22
g6
(g7
(I0
tp276
g9
tp277
Rp278
(I1
(I2
tp279
g16
I00
S'\x00\x00\x00\x80[\xb4fA\x00\x00\x00\x00\x00\xd0\x81@'
p280
tp281
bsg29
g6
(g7
(I0
tp282
g9
tp283
Rp284
(I1
(I2
tp285
g16
I00
S'\x00\x00\x00\x80\x91CrA\x00\x00\x00\x00\x00`\x83@'
p286
tp287
bsg36
g6
(g7
(I0
tp288
g9
tp289
Rp290
(I1
(I2
tp291
g16
I00
S'fff\xe6;\xb2gA\x00\x00\x00\x00\x00:\x83@'
p292
tp293
bsg43
I10
sa(dp294
g5
g6
(g7
(I0
tp295
g9
tp296
Rp297
(I1
(I2
tp298
g16
I00
S'}E\xed\x06\xb6\xa8"A\xd1^^\x03\xdf\xa5\x1d@'
p299
tp300
bsg21
I31
sg22
g6
(g7
(I0
tp301
g9
tp302
Rp303
(I1
(I2
tp304
g16
I00
S'\x00\x00\x00\x80[\xb4fA\x00\x00\x00\x00\x00p\x82@'
p305
tp306
bsg29
g6
(g7
(I0
tp307
g9
tp308
Rp309
(I1
(I2
tp310
g16
I00
S'\x00\x00\x00\x00R\xc6lA\x00\x00\x00\x00\x00`\x83@'
p311
tp312
bsg36
g6
(g7
(I0
tp313
g9
tp314
Rp315
(I1
(I2
tp316
g16
I00
S'fff\xc6\xf5\x02gA\x00\x00\x00\x00\x00J\x83@'
p317
tp318
bsg43
I11
sa(dp319
g5
g6
(g7
(I0
tp320
g9
tp321
Rp322
(I1
(I2
tp323
g16
I00
S'H\xaf\xf9\xbcT\xb0=AW\xc8\x9b\xd5\xbc\xf7\x1e@'
p324
tp325
bsg21
I27
sg22
g6
(g7
(I0
tp326
g9
tp327
Rp328
(I1
(I2
tp329
g16
I00
S'\x00\x00\x00\x80[\xb4fA\x00\x00\x00\x00\x00 \x82@'
p330
tp331
bsg29
g6
(g7
(I0
tp332
g9
tp333
Rp334
(I1
(I2
tp335
g16
I00
S'\x00\x00\x00\xc0 \xb0sA\x00\x00\x00\x00\x00`\x83@'
p336
tp337
bsg36
g6
(g7
(I0
tp338
g9
tp339
Rp340
(I1
(I2
tp341
g16
I00
S'\xcd\xcc\xcc\\z#hA\x00\x00\x00\x00\x00J\x83@'
p342
tp343
bsg43
I12
sa(dp344
g5
g6
(g7
(I0
tp345
g9
tp346
Rp347
(I1
(I2
tp348
g16
I00
S'5&\x888T\xbd\x1bA\x1d{9\xf2\x81\xf2\x12@'
p349
tp350
bsg21
I17
sg22
g6
(g7
(I0
tp351
g9
tp352
Rp353
(I1
(I2
tp354
g16
I00
S'\x00\x00\x00\x80[\xb4fA\x00\x00\x00\x00\x00\xc0\x82@'
p355
tp356
bsg29
g6
(g7
(I0
tp357
g9
tp358
Rp359
(I1
(I2
tp360
g16
I00
S'\x00\x00\x00\x00;"kA\x00\x00\x00\x00\x00\x00\x84@'
p361
tp362
bsg36
g6
(g7
(I0
tp363
g9
tp364
Rp365
(I1
(I2
tp366
g16
I00
S'\xcd\xcc\xcc\xdcp\xf1fA\x00\x00\x00\x00\x00b\x83@'
p367
tp368
bsg43
I13
sa(dp369
g5
g6
(g7
(I0
tp370
g9
tp371
Rp372
(I1
(I2
tp373
g16
I00
S'R\x9d\xe7\x1d\x1f\xe73A|-g\x14\xfb\xa3\x0b@'
p374
tp375
bsg21
I29
sg22
g6
(g7
(I0
tp376
g9
tp377
Rp378
(I1
(I2
tp379
g16
I00
S'\x00\x00\x00\x80[\xb4fA\x00\x00\x00\x00\x00\xc0\x82@'
p380
tp381
bsg29
g6
(g7
(I0
tp382
g9
tp383
Rp384
(I1
(I2
tp385
g16
I00
S'\x00\x00\x00@\x08\xafpA\x00\x00\x00\x00\x00`\x83@'
p386
tp387
bsg36
g6
(g7
(I0
tp388
g9
tp389
Rp390
(I1
(I2
tp391
g16
I00
S'\x00\x00\x00\xc0x\x8fgA\x00\x00\x00\x00\x00Z\x83@'
p392
tp393
bsg43
I14
sa(dp394
g5
g6
(g7
(I0
tp395
g9
tp396
Rp397
(I1
(I2
tp398
g16
I00
S'>\xe3a\xce=g;A4\x92U\xb7\xb2\xc2\x14@'
p399
tp400
bsg21
I22
sg22
g6
(g7
(I0
tp401
g9
tp402
Rp403
(I1
(I2
tp404
g16
I00
S'\x00\x00\x00\x80[\xb4fA\x00\x00\x00\x00\x00p\x82@'
p405
tp406
bsg29
g6
(g7
(I0
tp407
g9
tp408
Rp409
(I1
(I2
tp410
g16
I00
S'\x00\x00\x00@\x9b\x80sA\x00\x00\x00\x00\x00\xb0\x83@'
p411
tp412
bsg36
g6
(g7
(I0
tp413
g9
tp414
Rp415
(I1
(I2
tp416
g16
I00
S'fff\x16\xc1\xe6gA\x00\x00\x00\x00\x00Z\x83@'
p417
tp418
bsg43
I15
sa(dp419
g5
g6
(g7
(I0
tp420
g9
tp421
Rp422
(I1
(I2
tp423
g16
I00
S'\x18\xd6L9W\x17&A\xf6/\x12_ee\x14@'
p424
tp425
bsg21
I27
sg22
g6
(g7
(I0
tp426
g9
tp427
Rp428
(I1
(I2
tp429
g16
I00
S'\x00\x00\x00\x80[\xb4fA\x00\x00\x00\x00\x00\xc0\x82@'
p430
tp431
bsg29
g6
(g7
(I0
tp432
g9
tp433
Rp434
(I1
(I2
tp435
g16
I00
S'\x00\x00\x00\x00L-lA\x00\x00\x00\x00\x00`\x83@'
p436
tp437
bsg36
g6
(g7
(I0
tp438
g9
tp439
Rp440
(I1
(I2
tp441
g16
I00
S'\x00\x00\x00\xd0\xd6DgA\x00\x00\x00\x00\x00P\x83@'
p442
tp443
bsg43
I16
sa(dp444
g5
g6
(g7
(I0
tp445
g9
tp446
Rp447
(I1
(I2
tp448
g16
I00
S'e\x8b\xb1t\na3A\xe0\xf6l5A\x12\x05@'
p449
tp450
bsg21
I20
sg22
g6
(g7
(I0
tp451
g9
tp452
Rp453
(I1
(I2
tp454
g16
I00
S'\x00\x00\x00\x80[\xb4fA\x00\x00\x00\x00\x00\x10\x83@'
p455
tp456
bsg29
g6
(g7
(I0
tp457
g9
tp458
Rp459
(I1
(I2
tp460
g16
I00
S'\x00\x00\x00\x00\x1f=rA\x00\x00\x00\x00\x00`\x83@'
p461
tp462
bsg36
g6
(g7
(I0
tp463
g9
tp464
Rp465
(I1
(I2
tp466
g16
I00
S'\x9a\x99\x99\x99\xafMgA\x00\x00\x00\x00\x00Z\x83@'
p467
tp468
bsg43
I17
sa(dp469
g5
g6
(g7
(I0
tp470
g9
tp471
Rp472
(I1
(I2
tp473
g16
I00
S"1\x0fw\xb2\x80\xa6:A\xf5t\x96\xceD'\x1a@"
p474
tp475
bsg21
I21
sg22
g6
(g7
(I0
tp476
g9
tp477
Rp478
(I1
(I2
tp479
g16
I00
S'\x00\x00\x00\x80[\xb4fA\x00\x00\x00\x00\x00p\x82@'
p480
tp481
bsg29
g6
(g7
(I0
tp482
g9
tp483
Rp484
(I1
(I2
tp485
g16
I00
S'\x00\x00\x00\xc0\xc7\xd4tA\x00\x00\x00\x00\x00\xb0\x83@'
p486
tp487
bsg36
g6
(g7
(I0
tp488
g9
tp489
Rp490
(I1
(I2
tp491
g16
I00
S'333\xd3\xd0\xa0gA\x00\x00\x00\x00\x00T\x83@'
p492
tp493
bsg43
I18
sa(dp494
g5
g6
(g7
(I0
tp495
g9
tp496
Rp497
(I1
(I2
tp498
g16
I00
S')\xce\xb9\xe3\x92\xa9\x0cA\xe0\xf6l5A\x12\x05@'
p499
tp500
bsg21
I16
sg22
g6
(g7
(I0
tp501
g9
tp502
Rp503
(I1
(I2
tp504
g16
I00
S'\x00\x00\x00\x80[\xb4fA\x00\x00\x00\x00\x00\x10\x83@'
p505
tp506
bsg29
g6
(g7
(I0
tp507
g9
tp508
Rp509
(I1
(I2
tp510
g16
I00
S'\x00\x00\x00\x80c\xc8hA\x00\x00\x00\x00\x00`\x83@'
p511
tp512
bsg36
g6
(g7
(I0
tp513
g9
tp514
Rp515
(I1
(I2
tp516
g16
I00
S'\xcd\xcc\xcc\xdc\x83\xd3fA\x00\x00\x00\x00\x00Z\x83@'
p517
tp518
bsg43
I19
sa(dp519
g5
g6
(g7
(I0
tp520
g9
tp521
Rp522
(I1
(I2
tp523
g16
I00
S'\x9d\xca\x898\xf2\x872A\xf9Md4\x83o\x01@'
p524
tp525
bsg21
I21
sg22
g6
(g7
(I0
tp526
g9
tp527
Rp528
(I1
(I2
tp529
g16
I00
S'\x00\x00\x00\x80[\xb4fA\x00\x00\x00\x00\x00\x10\x83@'
p530
tp531
bsg29
g6
(g7
(I0
tp532
g9
tp533
Rp534
(I1
(I2
tp535
g16
I00
S'\x00\x00\x00\xc0\xa4\xc0qA\x00\x00\x00\x00\x00`\x83@'
p536
tp537
bsg36
g6
(g7
(I0
tp538
g9
tp539
Rp540
(I1
(I2
tp541
g16
I00
S'fff\x86\xf1_gA\x00\x00\x00\x00\x00\\\x83@'
p542
tp543
bsg43
I20
satp544
Rp545
(dp546
S'log_header'
p547
I01
sS'header'
p548
(lp549
g43
ag21
ag36
ag5
ag22
ag29
asS'columns_len'
p550
(lp551
I3
aI6
aI35
aI35
aI35
aI35
asS'buffindex'
p552
I21
sS'chapters'
p553
ccollections
defaultdict
p554
(g1
tp555
Rp556
sb.