(lp0
(I162036256
I33790063196
tp1
a(I162082107
I32533896540
tp2
a(I162086229
I32534687964
tp3
a(I162113243
I32555534652
tp4
a(I162120393
I31228624308
tp5
a(I162124073
I32479314012
tp6
a(I162200560
I36433792956
tp7
a(I162446931
I33872198196
tp8
a(I164587754
I32999320764
tp9
a(I164609094
I32987758044
tp10
a(I164613551
I35622430604
tp11
a(I164642201
I34311252196
tp12
a(I164649801
I35629970604
tp13
a(I164699993
I34338470596
tp14
a(I164718979
I31691104132
tp15
a(I164737435
I33028059516
tp16
a(I164738513
I35695402700
tp17
a(I164825368
I33029282652
tp18
a(I164836120
I34397015996
tp19
a(I164907175
I35667844396
tp20
a(I165996051
I33222733788
tp21
a(I167897396
I32264588540
tp22
a(I168915804
I32463319932
tp23
a(I169015057
I33880682940
tp24
a(I169025864
I33867097884
tp25
a(I170827025
I30101727876
tp26
a(I171135440
I31486989436
tp27
a(I171180621
I30098492004
tp28
a(I171288143
I31529525164
tp29
a(I171357762
I28757389596
tp30
a(I171383565
I33015663636
tp31
a(I171542112
I28786885596
tp32
a(I172593581
I35917188196
tp33
a(I172648403
I35928152596
tp34
a(I172976093
I34625541852
tp35
a(I173288270
I35993485996
tp36
a(I174526257
I36241083396
tp37
a(I174988631
I29318352956
tp38
a(I175041048
I39274294044
tp39
a(I175363050
I35099497596
tp40
a(I175394724
I35105579004
tp41
a(I177552369
I35519846844
tp42
a(I177588619
I35511146844
tp43
a(I177881469
I34159982292
tp44
a(I178683219
I35752630044
tp45
a(I178950745
I32862483116
tp46
a(I178950745
I34309749076
tp47
a(I179686273
I37418342276
tp48
a(I180673663
I34673745988
tp49
a(I180950305
I31755458916
tp50
a(I181336036
I37681339196
tp51
a(I181664568
I34793432508
tp52
a(I181764244
I34874412892
tp53
a(I181935833
I37915234276
tp54
a(I181963627
I36366808380
tp55
a(I182409860
I38010039676
tp56
a(I182463519
I35003079492
tp57
a(I185084178
I33977603004
tp58
a(I185269956
I38374163196
tp59
a(I185732693
I41615009364
tp60
a(I185868253
I41577334644
tp61
a(I186391400
I37283896476
tp62
a(I186466521
I40281784044
tp63
a(I186469853
I43265994748
tp64
a(I186495646
I41779807212
tp65
a(I186669116
I34138551292
tp66
a(I187186320
I38788755996
tp67
a(I188143620
I40661940636
tp68
a(I188382743
I43725802108
tp69
a(I188888384
I37535696604
tp70
a(I189433410
I36269879436
tp71
a(I189564348
I37826146812
tp72
a(I189687590
I42370991436
tp73
a(I189967442
I34852717468
tp74
a(I189992537
I42566455668
tp75
a(I190037027
I37968196860
tp76
a(I190111269
I34909351020
tp77
a(I190632278
I39509518156
tp78
a(I190843433
I39520178596
tp79
a(I191522052
I36607209564
tp80
a(I191833484
I32029189436
tp81
a(I192128813
I36770149268
tp82
a(I192368453
I38364534972
tp83
a(I192437527
I36838296964
tp84
a(I192670642
I32194454716
tp85
a(I192747672
I44672226204
tp86
a(I192857488
I33865485660
tp87
a(I193000538
I38454575292
tp88
a(I193217161
I38516142588
tp89
a(I193440485
I38507725116
tp90
a(I193777894
I43352772780
tp91
a(I193922354
I33966083148
tp92
a(I194304789
I37186188852
tp93
a(I194704023
I34061767860
tp94
a(I194941264
I35790750140
tp95
a(I196345410
I39226386396
tp96
a(I196350581
I42306348524
tp97
a(I196380193
I42312507820
tp98
a(I196641657
I37537872564
tp99
a(I196840200
I39223110396
tp100
a(I197402007
I39413593020
tp101
a(I198350850
I37848048396
tp102
a(I198754228
I39641899452
tp103
a(I198813144
I38011410492
tp104
a(I198830838
I34802052780
tp105
a(I198842730
I42789079836
tp106
a(I198894509
I31536477364
tp107
a(I199514703
I36388030284
tp108
a(I200427061
I39817827708
tp109
a(I200771852
I38438768444
tp110
a(I201342303
I44971025124
tp111
a(I201951121
I41933951876
tp112
a(I202438488
I38682789468
tp113
a(I202529421
I43560227244
tp114
a(I202639162
I43563077692
tp115
a(I202767247
I38805921124
tp116
a(I203163819
I42098191476
tp117
a(I203170620
I38833161756
tp118
a(I203173745
I38896376756
tp119
a(I204372728
I39018713948
tp120
a(I204837939
I37355989260
tp121
a(I205130949
I40881889884
tp122
a(I205210893
I40865919132
tp123
a(I205708753
I37670168204
tp124
a(I206214870
I37837544796
tp125
a(I206394677
I41046225660
tp126
a(I206553886
I34420089436
tp127
a(I207156328
I39566532028
tp128
a(I207638865
I36234821316
tp129
a(I207915846
I38105596572
tp130
a(I207972011
I38146801612
tp131
a(I208345983
I41389556412
tp132
a(I208412802
I39766403244
tp133
a(I208516169
I36288498948
tp134
a(I208587892
I34052118828
tp135
a(I209256783
I38231981484
tp136
a(I209675344
I34852817596
tp137
a(I209689053
I38210035884
tp138
a(I209738310
I40057276716
tp139
a(I210716906
I36834547884
tp140
a(I211208884
I43660224476
tp141
a(I211735284
I43843804476
tp142
a(I212258596
I38693344892
tp143
a(I212589630
I45472109916
tp144
a(I212835884
I40611570332
tp145
a(I213148085
I40441394516
tp146
a(I213645126
I40677855180
tp147
a(I214004986
I40661704300
tp148
a(I214031720
I42347557116
tp149
a(I214275502
I37369752012
tp150
a(I214585883
I42567892092
tp151
a(I215643982
I39497068508
tp152
a(I215672138
I44450534476
tp153
a(I215778816
I39442499292
tp154
a(I216108961
I39453624812
tp155
a(I216701041
I39589150892
tp156
a(I216743112
I36030389916
tp157
a(I217626400
I36301311676
tp158
a(I217994144
I36324515036
tp159
a(I218040899
I34576324324
tp160
a(I218266490
I31991416276
tp161
a(I218785692
I36408498396
tp162
a(I219216568
I41832596188
tp163
a(I219353622
I41790858444
tp164
a(I219483392
I47164953212
tp165
a(I219512427
I41835738564
tp166
a(I219722689
I39975705260
tp167
a(I219924180
I40089467676
tp168
a(I220187830
I47295816316
tp169
a(I220911231
I43880384028
tp170
a(I221002090
I45744145676
tp171
a(I221027252
I42165762044
tp172
a(I221187937
I43917851580
tp173
a(I221293027
I36887971996
tp174
a(I221573795
I45811506676
tp175
a(I222609467
I36192504528
tp176
a(I223000566
I40682207292
tp177
a(I223647390
I42679187436
tp178
a(I224218659
I40927911660
tp179
a(I225080209
I42833206132
tp180
a(I225365135
I42803267396
tp181
a(I225718810
I41144958236
tp182
a(I226393023
I41279279724
tp183
a(I227300314
I43366985452
tp184
a(I227859446
I37860299036
tp185
a(I228334789
I41668010540
tp186
a(I228881597
I43418725844
tp187
a(I230214239
I38268385916
tp188
a(I231299598
I40339420140
tp189
a(I231496827
I40372554612
tp190
a(I231810916
I44102976220
tp191
a(I231820028
I30977475580
tp192
a(I233437481
I42534764332
tp193
a(I233833470
I36847199436
tp194
a(I234011489
I40795017828
tp195
a(I235312893
I40884058020
tp196
a(I235319413
I44764199668
tp197
a(I236197608
I46815368412
tp198
a(I236468728
I43016968124
tp199
a(I236536994
I50629737308
tp200
a(I236640147
I46884675900
tp201
a(I237818184
I41403222588
tp202
a(I237944753
I39469632476
tp203
a(I239300509
I37725169364
tp204
a(I239917830
I37870297836
tp205
a(I240596657
I43857419308
tp206
a(I240626623
I47665739292
tp207
a(I240658553
I51569386700
tp208
a(I240714241
I43732858412
tp209
a(I240957470
I37981343116
tp210
a(I241885228
I51632549980
tp211
a(I241987286
I45944108300
tp212
a(I242889001
I42141434724
tp213
a(I243138922
I44257877948
tp214
a(I243169178
I46208556428
tp215
a(I243322509
I46221109332
tp216
a(I243586440
I46285332636
tp217
a(I245521270
I46719641356
tp218
a(I245542415
I48687871356
tp219
a(I245942169
I42736732068
tp220
a(I246022560
I44698442556
tp221
a(I246378611
I40658384636
tp222
a(I250656338
I43414776780
tp223
a(I250790564
I47673531452
tp224
a(I250790564
I49679855964
tp225
a(I250858892
I45632252668
tp226
a(I252317127
I43772089332
tp227
a(I252410513
I49943906172
tp228
a(I252864204
I52038268476
tp229
a(I253296082
I46045538108
tp230
a(I253296082
I46045538108
tp231
a(I253530956
I46133855932
tp232
a(I254822212
I52461190076
tp233
a(I255462558
I44398797420
tp234
a(I256121919
I56803422180
tp235
a(I257163981
I38269420140
tp236
a(I257937129
I42672728316
tp237
a(I259086816
I55386805404
tp238
a(I260174439
I47224808940
tp239
a(I260234111
I43102885436
tp240
a(I261133165
I49529590036
tp241
a(I261204253
I43211128156
tp242
a(I265584613
I43896325756
tp243
a(I271347228
I53465819772
tp244
a(I271511576
I49235805052
tp245
a(I272824725
I47253001476
tp246
a(I273829923
I45309535356
tp247
a(I275981369
I56677361476
tp248
a(I281301530
I50880536956
tp249
a(I281313187
I53101774084
tp250
a(I282149833
I48882259620
tp251
a(I282420639
I51155800140
tp252
a(I284739186
I42389570460
tp253
a(I285853882
I47264688796
tp254
a(I287870977
I52115059628
tp255
a(I289909996
I46562041932
tp256
a(I292532183
I52982411884
tp257
a(I292874667
I43592399724
tp258
a(I296357717
I44109618924
tp259
a(I298231671
I40785028248
tp260
a(I300422564
I59193539964
tp261
a(I303384501
I49799302716
tp262
a(I306732292
I41922770220
tp263
a(I309688027
I46013523564
tp264
a(I320197951
I52650119836
tp265
a(I335779493
I63186214388
tp266
a(I340355141
I51775348544
tp267
a(I349737178
I54480223052
tp268
a.