ccopy_reg
_reconstructor
p0
(cdeap.tools.support
Logbook
p1
c__builtin__
list
p2
(lp3
(dp4
S'std'
p5
cnumpy.core.multiarray
_reconstruct
p6
(cnumpy
ndarray
p7
(I0
tp8
S'b'
p9
tp10
Rp11
(I1
(I2
tp12
cnumpy
dtype
p13
(S'f8'
p14
I0
I1
tp15
Rp16
(I3
S'<'
p17
NNNI-1
I-1
I0
tp18
bI00
S'\xc9\x03\xb9\t\xf5]~A{\xfb!\x1d\xcf\xc6\xf9A'
p19
tp20
bsS'nevals'
p21
I80
sS'min'
p22
g6
(g7
(I0
tp23
g9
tp24
Rp25
(I1
(I2
tp26
g16
I00
S'\x00\x00\x00Xj\x8b\x9fA\x00\x00 C\x9fI\x08B'
p27
tp28
bsS'max'
p29
g6
(g7
(I0
tp30
g9
tp31
Rp32
(I1
(I2
tp33
g16
I00
S'\x00\x00\x00\x91\x96\x8a\xb0A\x00\x00\x08\x7f\xf4\x95%B'
p34
tp35
bsS'avg'
p36
g6
(g7
(I0
tp37
g9
tp38
Rp39
(I1
(I2
tp40
g16
I00
S'\x00\x00`\xc0\x19.\xa8A3\xb3\xccF\x1c\n B'
p41
tp42
bsS'gen'
p43
I0
sa(dp44
g5
g6
(g7
(I0
tp45
g9
tp46
Rp47
(I1
(I2
tp48
g16
I00
S'{;\x1b\xd5\xb7\xa4yA\xce\xa0&\xe4\xa6\x8d\xf7A'
p49
tp50
bsg21
I8
sg22
g6
(g7
(I0
tp51
g9
tp52
Rp53
(I1
(I2
tp54
g16
I00
S'\x00\x00\x00Xj\x8b\x9fA\x00\x00 C\x9fI\x08B'
p55
tp56
bsg29
g6
(g7
(I0
tp57
g9
tp58
Rp59
(I1
(I2
tp60
g16
I00
S'\x00\x00\x00\xde\x05\xf9\xadA\x00\x00H\x8a:8$B'
p61
tp62
bsg36
g6
(g7
(I0
tp63
g9
tp64
Rp65
(I1
(I2
tp66
g16
I00
S'ff\xc6zo&\xa7A\xcd\xcca\xc7\x13\x8d\x1eB'
p67
tp68
bsg43
I1
sa(dp69
g5
g6
(g7
(I0
tp70
g9
tp71
Rp72
(I1
(I2
tp73
g16
I00
S'\xc4\xc6ZM\xae\xc9uA\xf3~^\x8e\xf1\xcd\xf6A'
p74
tp75
bsg21
I11
sg22
g6
(g7
(I0
tp76
g9
tp77
Rp78
(I1
(I2
tp79
g16
I00
S'\x00\x00\x00Xj\x8b\x9fA\x00\x00 C\x9fI\x08B'
p80
tp81
bsg29
g6
(g7
(I0
tp82
g9
tp83
Rp84
(I1
(I2
tp85
g16
I00
S'\x00\x00\x00\xca\xa6\xec\xadA\x00\x00H\x8a:8$B'
p86
tp87
bsg36
g6
(g7
(I0
tp88
g9
tp89
Rp90
(I1
(I2
tp91
g16
I00
S'\x9a\x99\xd9R\xe1!\xa6Aff\x91\x84\xfcE\x1dB'
p92
tp93
bsg43
I2
sa(dp94
g5
g6
(g7
(I0
tp95
g9
tp96
Rp97
(I1
(I2
tp98
g16
I00
S'\x9c[%s\x9f\xd7uA9\xc5\xfd\xbd+\xb6\xf8A'
p99
tp100
bsg21
I11
sg22
g6
(g7
(I0
tp101
g9
tp102
Rp103
(I1
(I2
tp104
g16
I00
S'\x00\x00\x00Xj\x8b\x9fA\x00\x00 C\x9fI\x08B'
p105
tp106
bsg29
g6
(g7
(I0
tp107
g9
tp108
Rp109
(I1
(I2
tp110
g16
I00
S'\x00\x00\x00\xca\xa6\xec\xadA\x00\x00H\x8a:8$B'
p111
tp112
bsg36
g6
(g7
(I0
tp113
g9
tp114
Rp115
(I1
(I2
tp116
g16
I00
S'\x9a\x99\x99z\xe3\x83\xa5A\xcd\xcc\xbf_e\xf3\x1bB'
p117
tp118
bsg43
I3
sa(dp119
g5
g6
(g7
(I0
tp120
g9
tp121
Rp122
(I1
(I2
tp123
g16
I00
S'\xe5\xe97\xf7\x12\xcctA\xf2l_\xc0\xb5\xde\xf7A'
p124
tp125
bsg21
I12
sg22
g6
(g7
(I0
tp126
g9
tp127
Rp128
(I1
(I2
tp129
g16
I00
S'\x00\x00\x00Xj\x8b\x9fA\x00\x00 C\x9fI\x08B'
p130
tp131
bsg29
g6
(g7
(I0
tp132
g9
tp133
Rp134
(I1
(I2
tp135
g16
I00
S'\x00\x00\x00\xca\xa6\xec\xadA\x00\x00H\x8a:8$B'
p136
tp137
bsg36
g6
(g7
(I0
tp138
g9
tp139
Rp140
(I1
(I2
tp141
g16
I00
S'\x9a\x99y\x9cX\xfe\xa4A\xcd\xcc\x8b\xad\xc4\xc1\x1aB'
p142
tp143
bsg43
I4
sa(dp144
g5
g6
(g7
(I0
tp145
g9
tp146
Rp147
(I1
(I2
tp148
g16
I00
S'\x99^\xa9Cd\xb9vA\\y\xd5\xf4\xf0{\xf8A'
p149
tp150
bsg21
I9
sg22
g6
(g7
(I0
tp151
g9
tp152
Rp153
(I1
(I2
tp154
g16
I00
S'\x00\x00\x00Xj\x8b\x9fA\x00\x00 C\x9fI\x08B'
p155
tp156
bsg29
g6
(g7
(I0
tp157
g9
tp158
Rp159
(I1
(I2
tp160
g16
I00
S'\x00\x00\x00\xca\xa6\xec\xadA\x00\x00H\x8a:8$B'
p161
tp162
bsg36
g6
(g7
(I0
tp163
g9
tp164
Rp165
(I1
(I2
tp166
g16
I00
S'\x00\x00\xc0f\x8ag\xa4A33\xdc\x95\x1a6\x19B'
p167
tp168
bsg43
I5
sa(dp169
g5
g6
(g7
(I0
tp170
g9
tp171
Rp172
(I1
(I2
tp173
g16
I00
S'\xb7\xd6\xd0\xe7\xa0\xf5pA\x1c\x06z\xd8YS\xf6A'
p174
tp175
bsg21
I13
sg22
g6
(g7
(I0
tp176
g9
tp177
Rp178
(I1
(I2
tp179
g16
I00
S'\x00\x00\x00Xj\x8b\x9fA\x00\x00 C\x9fI\x08B'
p180
tp181
bsg29
g6
(g7
(I0
tp182
g9
tp183
Rp184
(I1
(I2
tp185
g16
I00
S'\x00\x00\x00\x06Hk\xa8A\x00\x00H\x8a:8$B'
p186
tp187
bsg36
g6
(g7
(I0
tp188
g9
tp189
Rp190
(I1
(I2
tp191
g16
I00
S'33\xd3\x14M\xb1\xa3A\xcd\xcc\x83\x95\xfa\x1b\x18B'
p192
tp193
bsg43
I6
sa(dp194
g5
g6
(g7
(I0
tp195
g9
tp196
Rp197
(I1
(I2
tp198
g16
I00
S'\xc1#\x92_\xe2\x04pA\x17\xc8\xc5_\xe2\xbc\xf3A'
p199
tp200
bsg21
I11
sg22
g6
(g7
(I0
tp201
g9
tp202
Rp203
(I1
(I2
tp204
g16
I00
S'\x00\x00\x00\x18\xf9N\x9eA\x00\x00 e\xba \x06B'
p205
tp206
bsg29
g6
(g7
(I0
tp207
g9
tp208
Rp209
(I1
(I2
tp210
g16
I00
S'\x00\x00\x00\xdeC\xf7\xa5A\x00\x00\xf8\xd8K< B'
p211
tp212
bsg36
g6
(g7
(I0
tp213
g9
tp214
Rp215
(I1
(I2
tp216
g16
I00
S'ff\xe6\x8d\x841\xa3A\xcd\xcc\xc4\xf4\x8d\x8f\x16B'
p217
tp218
bsg43
I7
sa(dp219
g5
g6
(g7
(I0
tp220
g9
tp221
Rp222
(I1
(I2
tp223
g16
I00
S'\xc5\xa6\xb1\xa3G@pA\x89\xde\xe7\xc2`\xc9\xf1A'
p224
tp225
bsg21
I8
sg22
g6
(g7
(I0
tp226
g9
tp227
Rp228
(I1
(I2
tp229
g16
I00
S'\x00\x00\x00\x18\xf9N\x9eA\x00\x00 e\xba \x06B'
p230
tp231
bsg29
g6
(g7
(I0
tp232
g9
tp233
Rp234
(I1
(I2
tp235
g16
I00
S'\x00\x00\x00\xdeC\xf7\xa5A\x00\x00p\x84<*\x1cB'
p236
tp237
bsg36
g6
(g7
(I0
tp238
g9
tp239
Rp240
(I1
(I2
tp241
g16
I00
S'\xcd\xccl9 \xfd\xa2Aff\xecw\xba\xed\x15B'
p242
tp243
bsg43
I8
sa(dp244
g5
g6
(g7
(I0
tp245
g9
tp246
Rp247
(I1
(I2
tp248
g16
I00
S'\xa3\x08\x13fIbpA\xc8k\xab\xb0nh\xf0A'
p249
tp250
bsg21
I11
sg22
g6
(g7
(I0
tp251
g9
tp252
Rp253
(I1
(I2
tp254
g16
I00
S'\x00\x00\x00\x18\xf9N\x9eA\x00\x00 e\xba \x06B'
p255
tp256
bsg29
g6
(g7
(I0
tp257
g9
tp258
Rp259
(I1
(I2
tp260
g16
I00
S'\x00\x00\x00\xdeC\xf7\xa5A\x00\x00P\xfa0z\x1bB'
p261
tp262
bsg36
g6
(g7
(I0
tp263
g9
tp264
Rp265
(I1
(I2
tp266
g16
I00
S'ff\xa6\x01\xbe\x9a\xa2Aff\x92\xf2r\x93\x14B'
p267
tp268
bsg43
I9
sa(dp269
g5
g6
(g7
(I0
tp270
g9
tp271
Rp272
(I1
(I2
tp273
g16
I00
S'o\xaa\xc7\r\xca]gA%\xd7\xb9\x071M\xf1A'
p274
tp275
bsg21
I12
sg22
g6
(g7
(I0
tp276
g9
tp277
Rp278
(I1
(I2
tp279
g16
I00
S'\x00\x00\x00\x18\xf9N\x9eA\x00\x00 \x8e\xda\xa1\x05B'
p280
tp281
bsg29
g6
(g7
(I0
tp282
g9
tp283
Rp284
(I1
(I2
tp285
g16
I00
S'\x00\x00\x00\xdeC\xf7\xa5A\x00\x00P\xfa0z\x1bB'
p286
tp287
bsg36
g6
(g7
(I0
tp288
g9
tp289
Rp290
(I1
(I2
tp291
g16
I00
S'\x00\x00`\xc4x\xdb\xa1A\x9a\x99\xef\xb6\xc61\x14B'
p292
tp293
bsg43
I10
sa(dp294
g5
g6
(g7
(I0
tp295
g9
tp296
Rp297
(I1
(I2
tp298
g16
I00
S'\x1d-\xe1\xd5[r`AL\xee\xf8<c\x99\xf0A'
p299
tp300
bsg21
I14
sg22
g6
(g7
(I0
tp301
g9
tp302
Rp303
(I1
(I2
tp304
g16
I00
S'\x00\x00\x00\x18\xf9N\x9eA\x00\x00 \x8e\xda\xa1\x05B'
p305
tp306
bsg29
g6
(g7
(I0
tp307
g9
tp308
Rp309
(I1
(I2
tp310
g16
I00
S'\x00\x00\x00\xbcq\xdb\xa4A\x00\x00P\xfa0z\x1bB'
p311
tp312
bsg36
g6
(g7
(I0
tp313
g9
tp314
Rp315
(I1
(I2
tp316
g16
I00
S'\x00\x00\xa0\xf7\xb9j\xa1A\x9a\x99\x17U\xc7\x82\x13B'
p317
tp318
bsg43
I11
sa(dp319
g5
g6
(g7
(I0
tp320
g9
tp321
Rp322
(I1
(I2
tp323
g16
I00
S'\xef\xb91)\xf0\x1f`A\xc7\xf9^\xe9\x0b]\xeaA'
p324
tp325
bsg21
I11
sg22
g6
(g7
(I0
tp326
g9
tp327
Rp328
(I1
(I2
tp329
g16
I00
S'\x00\x00\x00\x08\xe0c\x9cA\x00\x00 \x8e\xda\xa1\x05B'
p330
tp331
bsg29
g6
(g7
(I0
tp332
g9
tp333
Rp334
(I1
(I2
tp335
g16
I00
S'\x00\x00\x00\xbcq\xdb\xa4A\x00\x00P\xfa0z\x1bB'
p336
tp337
bsg36
g6
(g7
(I0
tp338
g9
tp339
Rp340
(I1
(I2
tp341
g16
I00
S'\xcd\xcc\xacq\x1b9\xa1AffL\xa7\xcfa\x12B'
p342
tp343
bsg43
I12
sa(dp344
g5
g6
(g7
(I0
tp345
g9
tp346
Rp347
(I1
(I2
tp348
g16
I00
S'\xc0j\xfe\xf9#\xe8aA\xeb\x84\x82\xfajl\xecA'
p349
tp350
bsg21
I10
sg22
g6
(g7
(I0
tp351
g9
tp352
Rp353
(I1
(I2
tp354
g16
I00
S'\x00\x00\x00<.i\x98A\x00\x00\xe0\xa7Zq\x03B'
p355
tp356
bsg29
g6
(g7
(I0
tp357
g9
tp358
Rp359
(I1
(I2
tp360
g16
I00
S'\x00\x00\x00h\xa9\x08\xa3A\x00\x00P\xfa0z\x1bB'
p361
tp362
bsg36
g6
(g7
(I0
tp363
g9
tp364
Rp365
(I1
(I2
tp366
g16
I00
S'\x9a\x99YP\xa1\x02\xa1Aff\x02\x92\x0f\xe6\x11B'
p367
tp368
bsg43
I13
sa(dp369
g5
g6
(g7
(I0
tp370
g9
tp371
Rp372
(I1
(I2
tp373
g16
I00
S',CD\xf4\x8d\xa1aA\xd3\x820{f&\xedA'
p374
tp375
bsg21
I14
sg22
g6
(g7
(I0
tp376
g9
tp377
Rp378
(I1
(I2
tp379
g16
I00
S'\x00\x00\x00<.i\x98A\x00\x00\xe0\xa7Zq\x03B'
p380
tp381
bsg29
g6
(g7
(I0
tp382
g9
tp383
Rp384
(I1
(I2
tp385
g16
I00
S'\x00\x00\x00h\xa9\x08\xa3A\x00\x00P\x90\x14\xbe\x16B'
p386
tp387
bsg36
g6
(g7
(I0
tp388
g9
tp389
Rp390
(I1
(I2
tp391
g16
I00
S'33\x93\xbc\x03\xe6\xa0A\x00\x00\x8a\x17<\xea\x11B'
p392
tp393
bsg43
I14
sa(dp394
g5
g6
(g7
(I0
tp395
g9
tp396
Rp397
(I1
(I2
tp398
g16
I00
S'\x94J\x03\xb6l2bA\xc7\xb0\xf7^:\x05\xebA'
p399
tp400
bsg21
I10
sg22
g6
(g7
(I0
tp401
g9
tp402
Rp403
(I1
(I2
tp404
g16
I00
S'\x00\x00\x00<.i\x98A\x00\x00\xe0\xa7Zq\x03B'
p405
tp406
bsg29
g6
(g7
(I0
tp407
g9
tp408
Rp409
(I1
(I2
tp410
g16
I00
S'\x00\x00\x00h\xa9\x08\xa3A\x00\x00P\x90\x14\xbe\x16B'
p411
tp412
bsg36
g6
(g7
(I0
tp413
g9
tp414
Rp415
(I1
(I2
tp416
g16
I00
S'\xcd\xcc\x0c\x9a\xb2\xdc\xa0A\xcd\xcc\xc2\x06\x83\xfc\x10B'
p417
tp418
bsg43
I15
sa(dp419
g5
g6
(g7
(I0
tp420
g9
tp421
Rp422
(I1
(I2
tp423
g16
I00
S'\xd6\xd9\x90\xb9\x85\xcfbA\xdcz\xe6\xad<\x07\xedA'
p424
tp425
bsg21
I10
sg22
g6
(g7
(I0
tp426
g9
tp427
Rp428
(I1
(I2
tp429
g16
I00
S'\x00\x00\x00<.i\x98A\x00\x00\xe0\xa7Zq\x03B'
p430
tp431
bsg29
g6
(g7
(I0
tp432
g9
tp433
Rp434
(I1
(I2
tp435
g16
I00
S'\x00\x00\x00h\xa9\x08\xa3A\x00\x00P\x90\x14\xbe\x16B'
p436
tp437
bsg36
g6
(g7
(I0
tp438
g9
tp439
Rp440
(I1
(I2
tp441
g16
I00
S'\xcd\xcc\xcc\x1f\xdd\xb8\xa0A\xcd\xcc\xe8\xce\x15\xa4\x10B'
p442
tp443
bsg43
I16
sa(dp444
g5
g6
(g7
(I0
tp445
g9
tp446
Rp447
(I1
(I2
tp448
g16
I00
S'\xf3\xe2\xfb-\x94\xb7aA`~U\xe6\x18\xd0\xebA'
p449
tp450
bsg21
I13
sg22
g6
(g7
(I0
tp451
g9
tp452
Rp453
(I1
(I2
tp454
g16
I00
S'\x00\x00\x00<.i\x98A\x00\x00\xe0\xa7Zq\x03B'
p455
tp456
bsg29
g6
(g7
(I0
tp457
g9
tp458
Rp459
(I1
(I2
tp460
g16
I00
S'\x00\x00\x00\xde\xf7\x17\xa2A\x00\x00\x10|\xed:\x17B'
p461
tp462
bsg36
g6
(g7
(I0
tp463
g9
tp464
Rp465
(I1
(I2
tp466
g16
I00
S'\x00\x00`\xa5\xfeg\xa0A\x9a\x99\xbbf\xc0\x18\x10B'
p467
tp468
bsg43
I17
sa(dp469
g5
g6
(g7
(I0
tp470
g9
tp471
Rp472
(I1
(I2
tp473
g16
I00
S'\xef\xcb\xbf1\xcd\xc5bA\xdc\xa4R\x07\x0bu\xe8A'
p474
tp475
bsg21
I8
sg22
g6
(g7
(I0
tp476
g9
tp477
Rp478
(I1
(I2
tp479
g16
I00
S'\x00\x00\x00<.i\x98A\x00\x00\xe0\xa7Zq\x03B'
p480
tp481
bsg29
g6
(g7
(I0
tp482
g9
tp483
Rp484
(I1
(I2
tp485
g16
I00
S'\x00\x00\x00\xde\xf7\x17\xa2A\x00\x00\x10|\xed:\x17B'
p486
tp487
bsg36
g6
(g7
(I0
tp488
g9
tp489
Rp490
(I1
(I2
tp491
g16
I00
S'\xcd\xccL3\xef[\xa0A33\x1b\xd2}\x01\x0eB'
p492
tp493
bsg43
I18
sa(dp494
g5
g6
(g7
(I0
tp495
g9
tp496
Rp497
(I1
(I2
tp498
g16
I00
S'7T)\x81\xb9\xdaaAU^G\xef\x96\x8b\xe8A'
p499
tp500
bsg21
I11
sg22
g6
(g7
(I0
tp501
g9
tp502
Rp503
(I1
(I2
tp504
g16
I00
S'\x00\x00\x00<.i\x98A\x00\x00@9\xa2?\xfcA'
p505
tp506
bsg29
g6
(g7
(I0
tp507
g9
tp508
Rp509
(I1
(I2
tp510
g16
I00
S'\x00\x00\x00\xa4\x94\x19\xa2A\x00\x000\xd4\xff\x13\x12B'
p511
tp512
bsg36
g6
(g7
(I0
tp513
g9
tp514
Rp515
(I1
(I2
tp516
g16
I00
S'ff\xa6J\xca3\xa0Aff>I \x9a\rB'
p517
tp518
bsg43
I19
sa(dp519
g5
g6
(g7
(I0
tp520
g9
tp521
Rp522
(I1
(I2
tp523
g16
I00
S'\xb0-)\xaaM\x89cA\x81\xa5\xa89[\xb9\xe8A'
p524
tp525
bsg21
I13
sg22
g6
(g7
(I0
tp526
g9
tp527
Rp528
(I1
(I2
tp529
g16
I00
S'\x00\x00\x00<.i\x98A\x00\x00@9\xa2?\xfcA'
p530
tp531
bsg29
g6
(g7
(I0
tp532
g9
tp533
Rp534
(I1
(I2
tp535
g16
I00
S'\x00\x00\x00\xa4\x94\x19\xa2A\x00\x000\xd4\xff\x13\x12B'
p536
tp537
bsg36
g6
(g7
(I0
tp538
g9
tp539
Rp540
(I1
(I2
tp541
g16
I00
S'ff\xa6o\x16<\xa0A\xcd\xcc\xe8\xf4l\xbf\x0cB'
p542
tp543
bsg43
I20
sa(dp544
g5
g6
(g7
(I0
tp545
g9
tp546
Rp547
(I1
(I2
tp548
g16
I00
S'\xbbk\xfd\x92B5eAh\x04\xa3\xa4:\x86\xe7A'
p549
tp550
bsg21
I13
sg22
g6
(g7
(I0
tp551
g9
tp552
Rp553
(I1
(I2
tp554
g16
I00
S'\x00\x00\x00<.i\x98A\x00\x00@9\xa2?\xfcA'
p555
tp556
bsg29
g6
(g7
(I0
tp557
g9
tp558
Rp559
(I1
(I2
tp560
g16
I00
S'\x00\x00\x00\xa4\x94\x19\xa2A\x00\x000\xd4\xff\x13\x12B'
p561
tp562
bsg36
g6
(g7
(I0
tp563
g9
tp564
Rp565
(I1
(I2
tp566
g16
I00
S'\x9a\x99Y\x10\x14g\xa0A\xcd\xcc\xc0\xa6\x02\x00\x0bB'
p567
tp568
bsg43
I21
sa(dp569
g5
g6
(g7
(I0
tp570
g9
tp571
Rp572
(I1
(I2
tp573
g16
I00
S'\xa0\xd0[\xb1\x99\x99fA\xf3\xa2\xca\xc9q\xd2\xe5A'
p574
tp575
bsg21
I13
sg22
g6
(g7
(I0
tp576
g9
tp577
Rp578
(I1
(I2
tp579
g16
I00
S'\x00\x00\x00<.i\x98A\x00\x00@9\xa2?\xfcA'
p580
tp581
bsg29
g6
(g7
(I0
tp582
g9
tp583
Rp584
(I1
(I2
tp585
g16
I00
S'\x00\x00\x00\xa4\x94\x19\xa2A\x00\x000\xd4\xff\x13\x12B'
p586
tp587
bsg36
g6
(g7
(I0
tp588
g9
tp589
Rp590
(I1
(I2
tp591
g16
I00
S'\x00\x00 \x14\xad\x86\xa0A33s\xaf J\tB'
p592
tp593
bsg43
I22
sa(dp594
g5
g6
(g7
(I0
tp595
g9
tp596
Rp597
(I1
(I2
tp598
g16
I00
S'\xb0\x02\xa16_<gA\x03\xa1\xa4\xa2\x90;\xe3A'
p599
tp600
bsg21
I10
sg22
g6
(g7
(I0
tp601
g9
tp602
Rp603
(I1
(I2
tp604
g16
I00
S'\x00\x00\x00<.i\x98A\x00\x00@9\xa2?\xfcA'
p605
tp606
bsg29
g6
(g7
(I0
tp607
g9
tp608
Rp609
(I1
(I2
tp610
g16
I00
S'\x00\x00\x00\xa4\x94\x19\xa2A\x00\x000\xd4\xff\x13\x12B'
p611
tp612
bsg36
g6
(g7
(I0
tp613
g9
tp614
Rp615
(I1
(I2
tp616
g16
I00
S'33Sse\x9d\xa0A\x9a\x99Y\x12KW\x08B'
p617
tp618
bsg43
I23
sa(dp619
g5
g6
(g7
(I0
tp620
g9
tp621
Rp622
(I1
(I2
tp623
g16
I00
S'\x89[\x91\xe6\x15\x7fiA\xc3\xb2\xb2P}{\xdfA'
p624
tp625
bsg21
I12
sg22
g6
(g7
(I0
tp626
g9
tp627
Rp628
(I1
(I2
tp629
g16
I00
S'\x00\x00\x00<.i\x98A\x00\x00@9\xa2?\xfcA'
p630
tp631
bsg29
g6
(g7
(I0
tp632
g9
tp633
Rp634
(I1
(I2
tp635
g16
I00
S'\x00\x00\x00\xa4\x94\x19\xa2A\x00\x00\xd0l\x0e\xff\x11B'
p636
tp637
bsg36
g6
(g7
(I0
tp638
g9
tp639
Rp640
(I1
(I2
tp641
g16
I00
S'\x9a\x999\xe6_\xa0\xa0Aff\x06\x93\xbb\xff\x06B'
p642
tp643
bsg43
I24
sa(dp644
g5
g6
(g7
(I0
tp645
g9
tp646
Rp647
(I1
(I2
tp648
g16
I00
S'\xb46\xe3@\x04\xacjA\xfe\x83L \xf0\x89\xe0A'
p649
tp650
bsg21
I14
sg22
g6
(g7
(I0
tp651
g9
tp652
Rp653
(I1
(I2
tp654
g16
I00
S'\x00\x00\x00<.i\x98A\x00\x00@9\xa2?\xfcA'
p655
tp656
bsg29
g6
(g7
(I0
tp657
g9
tp658
Rp659
(I1
(I2
tp660
g16
I00
S'\x00\x00\x00\xa4\x94\x19\xa2A\x00\x00\xd0l\x0e\xff\x11B'
p661
tp662
bsg36
g6
(g7
(I0
tp663
g9
tp664
Rp665
(I1
(I2
tp666
g16
I00
S'33\x13q\x0c\xc0\xa0A\x00\x00\x94\x11\xef\x86\x06B'
p667
tp668
bsg43
I25
sa(dp669
g5
g6
(g7
(I0
tp670
g9
tp671
Rp672
(I1
(I2
tp673
g16
I00
S'\xe7\x11\x18\xe02\xb0jA\x01\xc6\xc8\x966\xf5\xdaA'
p674
tp675
bsg21
I12
sg22
g6
(g7
(I0
tp676
g9
tp677
Rp678
(I1
(I2
tp679
g16
I00
S'\x00\x00\x00<.i\x98A\x00\x00@9\xa2?\xfcA'
p680
tp681
bsg29
g6
(g7
(I0
tp682
g9
tp683
Rp684
(I1
(I2
tp685
g16
I00
S'\x00\x00\x00\xa4\x94\x19\xa2A\x00\x00`f$\x8f\x0cB'
p686
tp687
bsg36
g6
(g7
(I0
tp688
g9
tp689
Rp690
(I1
(I2
tp691
g16
I00
S'33\xf3k \xfd\xa0A33+\xee\xbf\x98\x05B'
p692
tp693
bsg43
I26
sa(dp694
g5
g6
(g7
(I0
tp695
g9
tp696
Rp697
(I1
(I2
tp698
g16
I00
S'\xb4Q\xbb\xb3\x8f/gA\x1c\xbd\xf2\xcf\x00"\xd9A'
p699
tp700
bsg21
I11
sg22
g6
(g7
(I0
tp701
g9
tp702
Rp703
(I1
(I2
tp704
g16
I00
S'\x00\x00\x00<.i\x98A\x00\x00@9\xa2?\xfcA'
p705
tp706
bsg29
g6
(g7
(I0
tp707
g9
tp708
Rp709
(I1
(I2
tp710
g16
I00
S'\x00\x00\x00\xa4\x94\x19\xa2A\x00\x00`f$\x8f\x0cB'
p711
tp712
bsg36
g6
(g7
(I0
tp713
g9
tp714
Rp715
(I1
(I2
tp716
g16
I00
S'\xcd\xcc\xec\x83\x14T\xa1Aff^*\xc7\xa0\x04B'
p717
tp718
bsg43
I27
sa(dp719
g5
g6
(g7
(I0
tp720
g9
tp721
Rp722
(I1
(I2
tp723
g16
I00
S'\x8a\xe4a\x1f;\xfdgA\xd7\x07H\xef\xed\xde\xdaA'
p724
tp725
bsg21
I15
sg22
g6
(g7
(I0
tp726
g9
tp727
Rp728
(I1
(I2
tp729
g16
I00
S'\x00\x00\x00<.i\x98A\x00\x00@9\xa2?\xfcA'
p730
tp731
bsg29
g6
(g7
(I0
tp732
g9
tp733
Rp734
(I1
(I2
tp735
g16
I00
S'\x00\x00\x00\xa4\x94\x19\xa2A\x00\x00`f$\x8f\x0cB'
p736
tp737
bsg36
g6
(g7
(I0
tp738
g9
tp739
Rp740
(I1
(I2
tp741
g16
I00
S'\x9a\x99\xb9\xc6\xc13\xa1A\x00\x00\x10\xb9jR\x04B'
p742
tp743
bsg43
I28
sa(dp744
g5
g6
(g7
(I0
tp745
g9
tp746
Rp747
(I1
(I2
tp748
g16
I00
S'\x1a\x18\xcdm\xc8\x14hA\x15\xb8o\xab\xf9\xb1\xdcA'
p749
tp750
bsg21
I5
sg22
g6
(g7
(I0
tp751
g9
tp752
Rp753
(I1
(I2
tp754
g16
I00
S'\x00\x00\x00<.i\x98A\x00\x00@9\xa2?\xfcA'
p755
tp756
bsg29
g6
(g7
(I0
tp757
g9
tp758
Rp759
(I1
(I2
tp760
g16
I00
S'\x00\x00\x00\xa4\x94\x19\xa2A\x00\x00`f$\x8f\x0cB'
p761
tp762
bsg36
g6
(g7
(I0
tp763
g9
tp764
Rp765
(I1
(I2
tp766
g16
I00
S'\x00\x00\xc0\xddL\x14\xa1A\x00\x00\x00\xfb\x14\xea\x03B'
p767
tp768
bsg43
I29
sa(dp769
g5
g6
(g7
(I0
tp770
g9
tp771
Rp772
(I1
(I2
tp773
g16
I00
S'\x7f\xe3.\xdezUhAyC\x8a\xd3K\x06\xdfA'
p774
tp775
bsg21
I11
sg22
g6
(g7
(I0
tp776
g9
tp777
Rp778
(I1
(I2
tp779
g16
I00
S'\x00\x00\x00<.i\x98A\x00\x00@9\xa2?\xfcA'
p780
tp781
bsg29
g6
(g7
(I0
tp782
g9
tp783
Rp784
(I1
(I2
tp785
g16
I00
S'\x00\x00\x00\xa4\x94\x19\xa2A\x00\x00`f$\x8f\x0cB'
p786
tp787
bsg36
g6
(g7
(I0
tp788
g9
tp789
Rp790
(I1
(I2
tp791
g16
I00
S'\x00\x00\xa0h\xa7\xd2\xa0A\xcd\xcc\xac\xf5\x13\x1a\x03B'
p792
tp793
bsg43
I30
sa(dp794
g5
g6
(g7
(I0
tp795
g9
tp796
Rp797
(I1
(I2
tp798
g16
I00
S"\xcbpeGO\x18hA\xea\x9d'\xb7\xaf%\xe0A"
p799
tp800
bsg21
I12
sg22
g6
(g7
(I0
tp801
g9
tp802
Rp803
(I1
(I2
tp804
g16
I00
S'\x00\x00\x00<.i\x98A\x00\x00@9\xa2?\xfcA'
p805
tp806
bsg29
g6
(g7
(I0
tp807
g9
tp808
Rp809
(I1
(I2
tp810
g16
I00
S'\x00\x00\x00\xa4\x94\x19\xa2A\x00\x00`f$\x8f\x0cB'
p811
tp812
bsg36
g6
(g7
(I0
tp813
g9
tp814
Rp815
(I1
(I2
tp816
g16
I00
S'ff\x86\x95\xbe\x9b\xa0A\xcd\xcc\x94\x95\xd4\x90\x02B'
p817
tp818
bsg43
I31
sa(dp819
g5
g6
(g7
(I0
tp820
g9
tp821
Rp822
(I1
(I2
tp823
g16
I00
S'\x04\x07XC\x98\xe5gAm3v20K\xe0A'
p824
tp825
bsg21
I12
sg22
g6
(g7
(I0
tp826
g9
tp827
Rp828
(I1
(I2
tp829
g16
I00
S'\x00\x00\x00<.i\x98A\x00\x00@9\xa2?\xfcA'
p830
tp831
bsg29
g6
(g7
(I0
tp832
g9
tp833
Rp834
(I1
(I2
tp835
g16
I00
S'\x00\x00\x00\xa4\x94\x19\xa2A\x00\x00`f$\x8f\x0cB'
p836
tp837
bsg36
g6
(g7
(I0
tp838
g9
tp839
Rp840
(I1
(I2
tp841
g16
I00
S'33s\\\x7fg\xa0A33\x17\xf1%#\x02B'
p842
tp843
bsg43
I32
sa(dp844
g5
g6
(g7
(I0
tp845
g9
tp846
Rp847
(I1
(I2
tp848
g16
I00
S'{\xfb\x92\x0e.\x14dAc\xa2\x04\xa1\x8cx\xe1A'
p849
tp850
bsg21
I9
sg22
g6
(g7
(I0
tp851
g9
tp852
Rp853
(I1
(I2
tp854
g16
I00
S'\x00\x00\x00<.i\x98A\x00\x00@9\xa2?\xfcA'
p855
tp856
bsg29
g6
(g7
(I0
tp857
g9
tp858
Rp859
(I1
(I2
tp860
g16
I00
S'\x00\x00\x00\xa4\x94\x19\xa2A\x00\x00\x10\xaexs\x11B'
p861
tp862
bsg36
g6
(g7
(I0
tp863
g9
tp864
Rp865
(I1
(I2
tp866
g16
I00
S'\x9a\x99\x19\x90\xb3\xf9\x9fAff*\xdd\x01\x12\x01B'
p867
tp868
bsg43
I33
sa(dp869
g5
g6
(g7
(I0
tp870
g9
tp871
Rp872
(I1
(I2
tp873
g16
I00
S'1q\xab&7)_AeZ\xbe%+<\xdfA'
p874
tp875
bsg21
I14
sg22
g6
(g7
(I0
tp876
g9
tp877
Rp878
(I1
(I2
tp879
g16
I00
S'\x00\x00\x00<.i\x98A\x00\x00@9\xa2?\xfcA'
p880
tp881
bsg29
g6
(g7
(I0
tp882
g9
tp883
Rp884
(I1
(I2
tp885
g16
I00
S'\x00\x00\x00\xb2l\x85\xa1A\x00\x00`0\x1d\x87\x0eB'
p886
tp887
bsg36
g6
(g7
(I0
tp888
g9
tp889
Rp890
(I1
(I2
tp891
g16
I00
S'\xcd\xcc\xcc=n`\x9fA\xcd\xcc\x1c\x12\x8d)\x00B'
p892
tp893
bsg43
I34
sa(dp894
g5
g6
(g7
(I0
tp895
g9
tp896
Rp897
(I1
(I2
tp898
g16
I00
S'\xd4\x12\x04s\xa9\taAJ,\xf6\xed\xab\x12\xd5A'
p899
tp900
bsg21
I14
sg22
g6
(g7
(I0
tp901
g9
tp902
Rp903
(I1
(I2
tp904
g16
I00
S'\x00\x00\x00<.i\x98A\x00\x00@9\xa2?\xfcA'
p905
tp906
bsg29
g6
(g7
(I0
tp907
g9
tp908
Rp909
(I1
(I2
tp910
g16
I00
S'\x00\x00\x00\x18\xe7\xfa\x9fA\x00\x00`f$\x8f\x0cB'
p911
tp912
bsg36
g6
(g7
(I0
tp913
g9
tp914
Rp915
(I1
(I2
tp916
g16
I00
S'\x00\x00@Wp-\x9fA\x00\x00\xc8=\xd7\x01\xfeA'
p917
tp918
bsg43
I35
sa(dp919
g5
g6
(g7
(I0
tp920
g9
tp921
Rp922
(I1
(I2
tp923
g16
I00
S'\xe1\xd5\xa3\xd8\x0b\xeaTAp0@U\xe7\x94\xbeA'
p924
tp925
bsg21
I11
sg22
g6
(g7
(I0
tp926
g9
tp927
Rp928
(I1
(I2
tp929
g16
I00
S'\x00\x00\x00<.i\x98A\x00\x00@9\xa2?\xfcA'
p930
tp931
bsg29
g6
(g7
(I0
tp932
g9
tp933
Rp934
(I1
(I2
tp935
g16
I00
S'\x00\x00\x00\x18\xe7\xfa\x9fA\x00\x00\xe0\xa7Zq\x03B'
p936
tp937
bsg36
g6
(g7
(I0
tp938
g9
tp939
Rp940
(I1
(I2
tp941
g16
I00
S'fffxH\xb2\x9fA33\xd3\xa1H\xac\xfcA'
p942
tp943
bsg43
I36
sa(dp944
g5
g6
(g7
(I0
tp945
g9
tp946
Rp947
(I1
(I2
tp948
g16
I00
S'\x94\xce}v\xa5\xceUA\xf5\xe9t\x0b\x01*\xc0A'
p949
tp950
bsg21
I14
sg22
g6
(g7
(I0
tp951
g9
tp952
Rp953
(I1
(I2
tp954
g16
I00
S'\x00\x00\x00<.i\x98A\x00\x00@9\xa2?\xfcA'
p955
tp956
bsg29
g6
(g7
(I0
tp957
g9
tp958
Rp959
(I1
(I2
tp960
g16
I00
S'\x00\x00\x00\x18\xe7\xfa\x9fA\x00\x00\xe0\xa7Zq\x03B'
p961
tp962
bsg36
g6
(g7
(I0
tp963
g9
tp964
Rp965
(I1
(I2
tp966
g16
I00
S'\x00\x00\x80\x01\x0e\xa6\x9fA\x00\x00pK\xec\xc3\xfcA'
p967
tp968
bsg43
I37
sa(dp969
g5
g6
(g7
(I0
tp970
g9
tp971
Rp972
(I1
(I2
tp973
g16
I00
S'\x94\xce}v\xa5\xceUA\xf5\xe9t\x0b\x01*\xc0A'
p974
tp975
bsg21
I9
sg22
g6
(g7
(I0
tp976
g9
tp977
Rp978
(I1
(I2
tp979
g16
I00
S'\x00\x00\x00<.i\x98A\x00\x00@9\xa2?\xfcA'
p980
tp981
bsg29
g6
(g7
(I0
tp982
g9
tp983
Rp984
(I1
(I2
tp985
g16
I00
S'\x00\x00\x00\x18\xe7\xfa\x9fA\x00\x00\xe0\xa7Zq\x03B'
p986
tp987
bsg36
g6
(g7
(I0
tp988
g9
tp989
Rp990
(I1
(I2
tp991
g16
I00
S'\x00\x00\x80\x01\x0e\xa6\x9fA\x00\x00pK\xec\xc3\xfcA'
p992
tp993
bsg43
I38
sa(dp994
g5
g6
(g7
(I0
tp995
g9
tp996
Rp997
(I1
(I2
tp998
g16
I00
S'S\x03%U\xa0\xcdUAt\xf1\xc8V\xd8)\xc0A'
p999
tp1000
bsg21
I10
sg22
g6
(g7
(I0
tp1001
g9
tp1002
Rp1003
(I1
(I2
tp1004
g16
I00
S'\x00\x00\x00<.i\x98A\x00\x00@9\xa2?\xfcA'
p1005
tp1006
bsg29
g6
(g7
(I0
tp1007
g9
tp1008
Rp1009
(I1
(I2
tp1010
g16
I00
S'\x00\x00\x00\x18\xe7\xfa\x9fA\x00\x00\xe0\xa7Zq\x03B'
p1011
tp1012
bsg36
g6
(g7
(I0
tp1013
g9
tp1014
Rp1015
(I1
(I2
tp1016
g16
I00
S'fffG\xc6\xa5\x9fA33s\xe3\xa0\xca\xfcA'
p1017
tp1018
bsg43
I39
sa(dp1019
g5
g6
(g7
(I0
tp1020
g9
tp1021
Rp1022
(I1
(I2
tp1023
g16
I00
S'\xb8\x1bn\x194\x7fWA\xfa\xf6\xe3\x1b\x10\xe6\xc1A'
p1024
tp1025
bsg21
I12
sg22
g6
(g7
(I0
tp1026
g9
tp1027
Rp1028
(I1
(I2
tp1029
g16
I00
S'\x00\x00\x00<.i\x98A\x00\x00\x00\xaa\x9b\xe7\xf9A'
p1030
tp1031
bsg29
g6
(g7
(I0
tp1032
g9
tp1033
Rp1034
(I1
(I2
tp1035
g16
I00
S'\x00\x00\x00\x18\xe7\xfa\x9fA\x00\x00\xe0\xa7Zq\x03B'
p1036
tp1037
bsg36
g6
(g7
(I0
tp1038
g9
tp1039
Rp1040
(I1
(I2
tp1041
g16
I00
S'\xcd\xcc\x8cp\xd8\x88\x9fA\xcd\xcc\xa8\xf1\xfe\xe4\xfcA'
p1042
tp1043
bsg43
I40
sa(dp1044
g5
g6
(g7
(I0
tp1045
g9
tp1046
Rp1047
(I1
(I2
tp1048
g16
I00
S'F:\x8fz\xce\x8dWA \x19#b,\xa5\xc2A'
p1049
tp1050
bsg21
I16
sg22
g6
(g7
(I0
tp1051
g9
tp1052
Rp1053
(I1
(I2
tp1054
g16
I00
S'\x00\x00\x00<.i\x98A\x00\x00@\x9f\x11\xbd\xf7A'
p1055
tp1056
bsg29
g6
(g7
(I0
tp1057
g9
tp1058
Rp1059
(I1
(I2
tp1060
g16
I00
S'\x00\x00\x00\x18\xe7\xfa\x9fA\x00\x00\xe0\xa7Zq\x03B'
p1061
tp1062
bsg36
g6
(g7
(I0
tp1063
g9
tp1064
Rp1065
(I1
(I2
tp1066
g16
I00
S'\x00\x00@\xec\xb8\x82\x9fA\xcd\xcc$A\x10\xcf\xfcA'
p1067
tp1068
bsg43
I41
sa(dp1069
g5
g6
(g7
(I0
tp1070
g9
tp1071
Rp1072
(I1
(I2
tp1073
g16
I00
S';l\xcc\x97<\xaeWA8?\xf4\x90\x10\xfc\xc2A'
p1074
tp1075
bsg21
I11
sg22
g6
(g7
(I0
tp1076
g9
tp1077
Rp1078
(I1
(I2
tp1079
g16
I00
S'\x00\x00\x00<.i\x98A\x00\x00@\x9f\x11\xbd\xf7A'
p1080
tp1081
bsg29
g6
(g7
(I0
tp1082
g9
tp1083
Rp1084
(I1
(I2
tp1085
g16
I00
S'\x00\x00\x00\x18\xe7\xfa\x9fA\x00\x00\xe0\xa7Zq\x03B'
p1086
tp1087
bsg36
g6
(g7
(I0
tp1088
g9
tp1089
Rp1090
(I1
(I2
tp1091
g16
I00
S'\x00\x00\xc01\xa8x\x9fA\x9a\x99)\x17\x10\xc0\xfcA'
p1092
tp1093
bsg43
I42
sa(dp1094
g5
g6
(g7
(I0
tp1095
g9
tp1096
Rp1097
(I1
(I2
tp1098
g16
I00
S'\x87\xc2\xc62\xea][A\xb2\x9d\xb4L\x1f\xc3\xc5A'
p1099
tp1100
bsg21
I12
sg22
g6
(g7
(I0
tp1101
g9
tp1102
Rp1103
(I1
(I2
tp1104
g16
I00
S'\x00\x00\x00<.i\x98A\x00\x00@\x9f\x11\xbd\xf7A'
p1105
tp1106
bsg29
g6
(g7
(I0
tp1107
g9
tp1108
Rp1109
(I1
(I2
tp1110
g16
I00
S'\x00\x00\x00\x18\xe7\xfa\x9fA\x00\x00\xe0\xa7Zq\x03B'
p1111
tp1112
bsg36
g6
(g7
(I0
tp1113
g9
tp1114
Rp1115
(I1
(I2
tp1116
g16
I00
S'33\xb3\x84PO\x9fA\x9a\x99u6\xe3\xee\xfcA'
p1117
tp1118
bsg43
I43
sa(dp1119
g5
g6
(g7
(I0
tp1120
g9
tp1121
Rp1122
(I1
(I2
tp1123
g16
I00
S'v\xd2\xd7\xfe\x1a\\^A\xe1\x01\x17\xbdsi\xc9A'
p1124
tp1125
bsg21
I13
sg22
g6
(g7
(I0
tp1126
g9
tp1127
Rp1128
(I1
(I2
tp1129
g16
I00
S'\x00\x00\x00<.i\x98A\x00\x00@\x9f\x11\xbd\xf7A'
p1130
tp1131
bsg29
g6
(g7
(I0
tp1132
g9
tp1133
Rp1134
(I1
(I2
tp1135
g16
I00
S'\x00\x00\x00\x18\xe7\xfa\x9fA\x00\x00\xe0\xa7Zq\x03B'
p1136
tp1137
bsg36
g6
(g7
(I0
tp1138
g9
tp1139
Rp1140
(I1
(I2
tp1141
g16
I00
S'\x00\x00\x80\xf2\xcb\x1f\x9fAff\x1a\xbb\x9f-\xfdA'
p1142
tp1143
bsg43
I44
sa(dp1144
g5
g6
(g7
(I0
tp1145
g9
tp1146
Rp1147
(I1
(I2
tp1148
g16
I00
S'\x18\x1c\x99\x0b\x0e\x9a`A\x10\xd2\x9e5*\x06\xccA'
p1149
tp1150
bsg21
I13
sg22
g6
(g7
(I0
tp1151
g9
tp1152
Rp1153
(I1
(I2
tp1154
g16
I00
S'\x00\x00\x00<.i\x98A\x00\x00@\x9f\x11\xbd\xf7A'
p1155
tp1156
bsg29
g6
(g7
(I0
tp1157
g9
tp1158
Rp1159
(I1
(I2
tp1160
g16
I00
S'\x00\x00\x00\x18\xe7\xfa\x9fA\x00\x00\xe0\xa7Zq\x03B'
p1161
tp1162
bsg36
g6
(g7
(I0
tp1163
g9
tp1164
Rp1165
(I1
(I2
tp1166
g16
I00
S'\xcd\xcc\xcc\xe1N\xee\x9eA\xcd\xccx\xb1\xcdi\xfdA'
p1167
tp1168
bsg43
I45
sa(dp1169
g5
g6
(g7
(I0
tp1170
g9
tp1171
Rp1172
(I1
(I2
tp1173
g16
I00
S'\x10\x92j\xae\x89\x91aA\xfa\xb8\xf0q\x80\xb4\xceA'
p1174
tp1175
bsg21
I11
sg22
g6
(g7
(I0
tp1176
g9
tp1177
Rp1178
(I1
(I2
tp1179
g16
I00
S'\x00\x00\x00<.i\x98A\x00\x00@\x9f\x11\xbd\xf7A'
p1180
tp1181
bsg29
g6
(g7
(I0
tp1182
g9
tp1183
Rp1184
(I1
(I2
tp1185
g16
I00
S'\x00\x00\x00\x18\xe7\xfa\x9fA\x00\x00\xe0\xa7Zq\x03B'
p1186
tp1187
bsg36
g6
(g7
(I0
tp1188
g9
tp1189
Rp1190
(I1
(I2
tp1191
g16
I00
S'\x9a\x99Y=\xc7\xb9\x9eA\xcd\xcc\xa4KD\xa5\xfdA'
p1192
tp1193
bsg43
I46
sa(dp1194
g5
g6
(g7
(I0
tp1195
g9
tp1196
Rp1197
(I1
(I2
tp1198
g16
I00
S'\x0b\xbc\xc0+q\x8eaAi\x1aK\x98\x12u\xcfA'
p1199
tp1200
bsg21
I13
sg22
g6
(g7
(I0
tp1201
g9
tp1202
Rp1203
(I1
(I2
tp1204
g16
I00
S'\x00\x00\x00<.i\x98A\x00\x00@\x9f\x11\xbd\xf7A'
p1205
tp1206
bsg29
g6
(g7
(I0
tp1207
g9
tp1208
Rp1209
(I1
(I2
tp1210
g16
I00
S'\x00\x00\x00\x18\xe7\xfa\x9fA\x00\x00\xe0\xa7Zq\x03B'
p1211
tp1212
bsg36
g6
(g7
(I0
tp1213
g9
tp1214
Rp1215
(I1
(I2
tp1216
g16
I00
S'33s\xf4\xa1\x9e\x9eA33\xdf\xad\x1d\xa3\xfdA'
p1217
tp1218
bsg43
I47
sa(dp1219
g5
g6
(g7
(I0
tp1220
g9
tp1221
Rp1222
(I1
(I2
tp1223
g16
I00
S'\xf3\xd0\xf5;FkbA}\xf48\xd9\x1eH\xdaA'
p1224
tp1225
bsg21
I13
sg22
g6
(g7
(I0
tp1226
g9
tp1227
Rp1228
(I1
(I2
tp1229
g16
I00
S'\x00\x00\x00<.i\x98A\x00\x00@\x9f\x11\xbd\xf7A'
p1230
tp1231
bsg29
g6
(g7
(I0
tp1232
g9
tp1233
Rp1234
(I1
(I2
tp1235
g16
I00
S'\x00\x00\x00\x18\xe7\xfa\x9fA\x00\x00\xb0\xf2\x1d\x9f\x12B'
p1236
tp1237
bsg36
g6
(g7
(I0
tp1238
g9
tp1239
Rp1240
(I1
(I2
tp1241
g16
I00
S'\x9a\x99Y6\x85<\x9eA\x9a\x99\x8d\x16\xc1\xbc\xfeA'
p1242
tp1243
bsg43
I48
sa(dp1244
g5
g6
(g7
(I0
tp1245
g9
tp1246
Rp1247
(I1
(I2
tp1248
g16
I00
S'\xab\xda\xcf_\xa0VdA\x9e\xc0vC+\xab\xdbA'
p1249
tp1250
bsg21
I11
sg22
g6
(g7
(I0
tp1251
g9
tp1252
Rp1253
(I1
(I2
tp1254
g16
I00
S'\x00\x00\x00<.i\x98A\x00\x00@\x9f\x11\xbd\xf7A'
p1255
tp1256
bsg29
g6
(g7
(I0
tp1257
g9
tp1258
Rp1259
(I1
(I2
tp1260
g16
I00
S'\x00\x00\x00\x18\xe7\xfa\x9fA\x00\x00\xb0\xf2\x1d\x9f\x12B'
p1261
tp1262
bsg36
g6
(g7
(I0
tp1263
g9
tp1264
Rp1265
(I1
(I2
tp1266
g16
I00
S'\x9a\x99\xd9\x8c\x8e\xac\x9dA\xcd\xcc\x08\x02\xf0\x9e\xffA'
p1267
tp1268
bsg43
I49
sa(dp1269
g5
g6
(g7
(I0
tp1270
g9
tp1271
Rp1272
(I1
(I2
tp1273
g16
I00
S'\xcc\xd2\x8b\x9f\xbc\xc4cABR\x8f\xde\x17H\xe1A'
p1274
tp1275
bsg21
I12
sg22
g6
(g7
(I0
tp1276
g9
tp1277
Rp1278
(I1
(I2
tp1279
g16
I00
S'\x00\x00\x00<.i\x98A\x00\x00\x80\x9a}\x94\xf0A'
p1280
tp1281
bsg29
g6
(g7
(I0
tp1282
g9
tp1283
Rp1284
(I1
(I2
tp1285
g16
I00
S'\x00\x00\x00\x18\xe7\xfa\x9fA\x00\x00\xb0\xf2\x1d\x9f\x12B'
p1286
tp1287
bsg36
g6
(g7
(I0
tp1288
g9
tp1289
Rp1290
(I1
(I2
tp1291
g16
I00
S'fffrSJ\x9dA\x9a\x99\xebTeW\x00B'
p1292
tp1293
bsg43
I50
satp1294
Rp1295
(dp1296
S'log_header'
p1297
I01
sS'header'
p1298
(lp1299
g43
ag21
ag36
ag5
ag22
ag29
asS'columns_len'
p1300
NsS'buffindex'
p1301
I0
sS'chapters'
p1302
ccollections
defaultdict
p1303
(g1
tp1304
Rp1305
sb.