{
  "type": "csdf",
  "name": "bvlc_alexnet_BB_40",
  "node_number": 31,
  "edge_number": 43,
    "nodes": [
      {
        "id": 0,
        "name": "data_0",
        "function": "READ",
        "length": 224,
        "port_number": 1,
        "wcet":[0,0,0,0,0,0,0,0,0,0,0,0,0,0,0,0,0,0,0,0,0,0,0,0,0,0,0,0,0,0,0,0,0,0,0,0,0,0,0,0,0,0,0,0,0,0,0,0,0,0,0,0,0,0,0,0,0,0,0,0,0,0,0,0,0,0,0,0,0,0,0,0,0,0,0,0,0,0,0,0,0,0,0,0,0,0,0,0,0,0,0,0,0,0,0,0,0,0,0,0,0,0,0,0,0,0,0,0,0,0,0,0,0,0,0,0,0,0,0,0,0,0,0,0,0,0,0,0,0,0,0,0,0,0,0,0,0,0,0,0,0,0,0,0,0,0,0,0,0,0,0,0,0,0,0,0,0,0,0,0,0,0,0,0,0,0,0,0,0,0,0,0,0,0,0,0,0,0,0,0,0,0,0,0,0,0,0,0,0,0,0,0,0,0,0,0,0,0,0,0,0,0,0,0,0,0,0,0,0,0,0,0,0,0,0,0,0,0,0,0,0,0,0,0], 
        "ports": [

          {
            "id": 0,
            "name": "OP0",
            "rate": [672,672,672,672,672,672,672,672,672,672,672,672,672,672,672,672,672,672,672,672,672,672,672,672,672,672,672,672,672,672,672,672,672,672,672,672,672,672,672,672,672,672,672,672,672,672,672,672,672,672,672,672,672,672,672,672,672,672,672,672,672,672,672,672,672,672,672,672,672,672,672,672,672,672,672,672,672,672,672,672,672,672,672,672,672,672,672,672,672,672,672,672,672,672,672,672,672,672,672,672,672,672,672,672,672,672,672,672,672,672,672,672,672,672,672,672,672,672,672,672,672,672,672,672,672,672,672,672,672,672,672,672,672,672,672,672,672,672,672,672,672,672,672,672,672,672,672,672,672,672,672,672,672,672,672,672,672,672,672,672,672,672,672,672,672,672,672,672,672,672,672,672,672,672,672,672,672,672,672,672,672,672,672,672,672,672,672,672,672,672,672,672,672,672,672,672,672,672,672,672,672,672,672,672,672,672,672,672,672,672,672,672,672,672,672,672,672,672,672,672,672,672,672,672],
            "type": "out"
          }
        ]
      }
      ,
      {
        "id": 1,
        "name": "node_Conv0",
        "function": "CONV(11_11_3)",
        "length": 55,
        "port_number": 4,
        "wcet":[5749920,5749920,5749920,5749920,5749920,5749920,5749920,5749920,5749920,5749920,5749920,5749920,5749920,5749920,5749920,5749920,5749920,5749920,5749920,5749920,5749920,5749920,5749920,5749920,5749920,5749920,5749920,5749920,5749920,5749920,5749920,5749920,5749920,5749920,5749920,5749920,5749920,5749920,5749920,5749920,5749920,5749920,5749920,5749920,5749920,5749920,5749920,5749920,5749920,5749920,5749920,5749920,5749920,5749920,5749920], 
        "ports": [

          {
            "id": 0,
            "name": "IP0",
            "rate": [7392,2688,2688,2688,2688,2688,2688,2688,2688,2688,2688,2688,2688,2688,2688,2688,2688,2688,2688,2688,2688,2688,2688,2688,2688,2688,2688,2688,2688,2688,2688,2688,2688,2688,2688,2688,2688,2688,2688,2688,2688,2688,2688,2688,2688,2688,2688,2688,2688,2688,2688,2688,2688,2688,672],
            "type": "in"
          },
          {
            "id": 1,
            "name": "OP0",
            "rate": [4704,4704,4704,4704,4704,4704,4704,4704,4704,4704,4704,4704,4704,4704,4704,4704,4704,4704,4704,4704,4704,4704,4704,4704,4704,4704,4704,4704,4704,4704,4704,4704,4704,4704,4704,4704,4704,4704,4704,4704,4704,4704,4704,4704,4704,4704,4704,4704,4704,4704,4704,4704,4704,4704,0],
            "type": "out"
          },
          {
            "id": 2,
            "name": "IP1",
            "rate": [0,4704,4704,4704,4704,4704,4704,4704,4704,4704,4704,4704,4704,4704,4704,4704,4704,4704,4704,4704,4704,4704,4704,4704,4704,4704,4704,4704,4704,4704,4704,4704,4704,4704,4704,4704,4704,4704,4704,4704,4704,4704,4704,4704,4704,4704,4704,4704,4704,4704,4704,4704,4704,4704,4704],
            "type": "in"
          },
          {
            "id": 3,
            "name": "OP1",
            "rate": [5280,5280,5280,5280,5280,5280,5280,5280,5280,5280,5280,5280,5280,5280,5280,5280,5280,5280,5280,5280,5280,5280,5280,5280,5280,5280,5280,5280,5280,5280,5280,5280,5280,5280,5280,5280,5280,5280,5280,5280,5280,5280,5280,5280,5280,5280,5280,5280,5280,5280,5280,5280,5280,5280,5280],
            "type": "out"
          }
        ]
      }
      ,
      {
        "id": 2,
        "name": "node_Relu1",
        "function": "ReLU",
        "length": 55,
        "port_number": 2,
        "wcet":[506880,506880,506880,506880,506880,506880,506880,506880,506880,506880,506880,506880,506880,506880,506880,506880,506880,506880,506880,506880,506880,506880,506880,506880,506880,506880,506880,506880,506880,506880,506880,506880,506880,506880,506880,506880,506880,506880,506880,506880,506880,506880,506880,506880,506880,506880,506880,506880,506880,506880,506880,506880,506880,506880,506880], 
        "ports": [

          {
            "id": 0,
            "name": "IP0",
            "rate": [5280,5280,5280,5280,5280,5280,5280,5280,5280,5280,5280,5280,5280,5280,5280,5280,5280,5280,5280,5280,5280,5280,5280,5280,5280,5280,5280,5280,5280,5280,5280,5280,5280,5280,5280,5280,5280,5280,5280,5280,5280,5280,5280,5280,5280,5280,5280,5280,5280,5280,5280,5280,5280,5280,5280],
            "type": "in"
          },
          {
            "id": 1,
            "name": "OP0",
            "rate": [5280,5280,5280,5280,5280,5280,5280,5280,5280,5280,5280,5280,5280,5280,5280,5280,5280,5280,5280,5280,5280,5280,5280,5280,5280,5280,5280,5280,5280,5280,5280,5280,5280,5280,5280,5280,5280,5280,5280,5280,5280,5280,5280,5280,5280,5280,5280,5280,5280,5280,5280,5280,5280,5280,5280],
            "type": "out"
          }
        ]
      }
      ,
      {
        "id": 3,
        "name": "node_LRN2",
        "function": "LRN(5)",
        "length": 55,
        "port_number": 2,
        "wcet":[691200,691200,691200,691200,691200,691200,691200,691200,691200,691200,691200,691200,691200,691200,691200,691200,691200,691200,691200,691200,691200,691200,691200,691200,691200,691200,691200,691200,691200,691200,691200,691200,691200,691200,691200,691200,691200,691200,691200,691200,691200,691200,691200,691200,691200,691200,691200,691200,691200,691200,691200,691200,691200,691200,691200], 
        "ports": [

          {
            "id": 0,
            "name": "IP0",
            "rate": [5280,5280,5280,5280,5280,5280,5280,5280,5280,5280,5280,5280,5280,5280,5280,5280,5280,5280,5280,5280,5280,5280,5280,5280,5280,5280,5280,5280,5280,5280,5280,5280,5280,5280,5280,5280,5280,5280,5280,5280,5280,5280,5280,5280,5280,5280,5280,5280,5280,5280,5280,5280,5280,5280,5280],
            "type": "in"
          },
          {
            "id": 1,
            "name": "OP0",
            "rate": [5280,5280,5280,5280,5280,5280,5280,5280,5280,5280,5280,5280,5280,5280,5280,5280,5280,5280,5280,5280,5280,5280,5280,5280,5280,5280,5280,5280,5280,5280,5280,5280,5280,5280,5280,5280,5280,5280,5280,5280,5280,5280,5280,5280,5280,5280,5280,5280,5280,5280,5280,5280,5280,5280,5280],
            "type": "out"
          }
        ]
      }
      ,
      {
        "id": 4,
        "name": "node_MaxPool3",
        "function": "MAXPOOL(3_3_55)",
        "length": 27,
        "port_number": 5,
        "wcet":[2566080,2566080,2566080,2566080,2566080,2566080,2566080,2566080,2566080,2566080,2566080,2566080,2566080,2566080,2566080,2566080,2566080,2566080,2566080,2566080,2566080,2566080,2566080,2566080,2566080,2566080,2566080], 
        "ports": [

          {
            "id": 0,
            "name": "IP0",
            "rate": [15840,10560,10560,10560,10560,10560,10560,10560,10560,10560,10560,10560,10560,10560,10560,10560,10560,10560,10560,10560,10560,10560,10560,10560,10560,10560,10560],
            "type": "in"
          },
          {
            "id": 1,
            "name": "OP0",
            "rate": [55,55,55,55,55,55,55,55,55,55,55,55,55,55,55,55,55,55,55,55,55,55,55,55,55,55,0],
            "type": "out"
          },
          {
            "id": 2,
            "name": "IP1",
            "rate": [0,55,55,55,55,55,55,55,55,55,55,55,55,55,55,55,55,55,55,55,55,55,55,55,55,55,55],
            "type": "in"
          },
          {
            "id": 3,
            "name": "OP1",
            "rate": [2592,2592,2592,2592,2592,2592,2592,2592,2592,2592,2592,2592,2592,2592,2592,2592,2592,2592,2592,2592,2592,2592,2592,2592,2592,2592,2592],
            "type": "out"
          },
          {
            "id": 4,
            "name": "OP2",
            "rate": [2592,2592,2592,2592,2592,2592,2592,2592,2592,2592,2592,2592,2592,2592,2592,2592,2592,2592,2592,2592,2592,2592,2592,2592,2592,2592,2592],
            "type": "out"
          }
        ]
      }
      ,
      {
        "id": 5,
        "name": "node_Conv4",
        "function": "CONV(5_5_96)",
        "length": 27,
        "port_number": 4,
        "wcet":[24883200,24883200,24883200,24883200,24883200,24883200,24883200,24883200,24883200,24883200,24883200,24883200,24883200,24883200,24883200,24883200,24883200,24883200,24883200,24883200,24883200,24883200,24883200,24883200,24883200,24883200,24883200], 
        "ports": [

          {
            "id": 0,
            "name": "IP0",
            "rate": [12960,2592,2592,2592,2592,2592,2592,2592,2592,2592,2592,2592,2592,2592,2592,2592,2592,2592,2592,2592,2592,2592,2592,0,0,0,0],
            "type": "in"
          },
          {
            "id": 1,
            "name": "OP0",
            "rate": [10368,10368,10368,10368,10368,10368,10368,10368,10368,10368,10368,10368,10368,10368,10368,10368,10368,10368,10368,10368,10368,10368,0,0,0,0,0],
            "type": "out"
          },
          {
            "id": 2,
            "name": "IP1",
            "rate": [0,10368,10368,10368,10368,10368,10368,10368,10368,10368,10368,10368,10368,10368,10368,10368,10368,10368,10368,10368,10368,10368,10368,0,0,0,0],
            "type": "in"
          },
          {
            "id": 3,
            "name": "OP1",
            "rate": [3456,3456,3456,3456,3456,3456,3456,3456,3456,3456,3456,3456,3456,3456,3456,3456,3456,3456,3456,3456,3456,3456,3456,3456,3456,3456,3456],
            "type": "out"
          }
        ]
      }
      ,
      {
        "id": 6,
        "name": "node_Relu5",
        "function": "ReLU",
        "length": 27,
        "port_number": 2,
        "wcet":[442368,442368,442368,442368,442368,442368,442368,442368,442368,442368,442368,442368,442368,442368,442368,442368,442368,442368,442368,442368,442368,442368,442368,442368,442368,442368,442368], 
        "ports": [

          {
            "id": 0,
            "name": "IP0",
            "rate": [3456,3456,3456,3456,3456,3456,3456,3456,3456,3456,3456,3456,3456,3456,3456,3456,3456,3456,3456,3456,3456,3456,3456,3456,3456,3456,3456],
            "type": "in"
          },
          {
            "id": 1,
            "name": "OP0",
            "rate": [3456,3456,3456,3456,3456,3456,3456,3456,3456,3456,3456,3456,3456,3456,3456,3456,3456,3456,3456,3456,3456,3456,3456,3456,3456,3456,3456],
            "type": "out"
          }
        ]
      }
      ,
      {
        "id": 7,
        "name": "node_LRN6",
        "function": "LRN(5)",
        "length": 27,
        "port_number": 2,
        "wcet":[1228800,1228800,1228800,1228800,1228800,1228800,1228800,1228800,1228800,1228800,1228800,1228800,1228800,1228800,1228800,1228800,1228800,1228800,1228800,1228800,1228800,1228800,1228800,1228800,1228800,1228800,1228800], 
        "ports": [

          {
            "id": 0,
            "name": "IP0",
            "rate": [3456,3456,3456,3456,3456,3456,3456,3456,3456,3456,3456,3456,3456,3456,3456,3456,3456,3456,3456,3456,3456,3456,3456,3456,3456,3456,3456],
            "type": "in"
          },
          {
            "id": 1,
            "name": "OP0",
            "rate": [3456,3456,3456,3456,3456,3456,3456,3456,3456,3456,3456,3456,3456,3456,3456,3456,3456,3456,3456,3456,3456,3456,3456,3456,3456,3456,3456],
            "type": "out"
          }
        ]
      }
      ,
      {
        "id": 8,
        "name": "node_MaxPool7",
        "function": "MAXPOOL(3_3_27)",
        "length": 13,
        "port_number": 4,
        "wcet":[808704,808704,808704,808704,808704,808704,808704,808704,808704,808704,808704,808704,808704], 
        "ports": [

          {
            "id": 0,
            "name": "IP0",
            "rate": [10368,6912,6912,6912,6912,6912,6912,6912,6912,6912,6912,6912,6912],
            "type": "in"
          },
          {
            "id": 1,
            "name": "OP0",
            "rate": [27,27,27,27,27,27,27,27,27,27,27,27,0],
            "type": "out"
          },
          {
            "id": 2,
            "name": "IP1",
            "rate": [0,27,27,27,27,27,27,27,27,27,27,27,27],
            "type": "in"
          },
          {
            "id": 3,
            "name": "OP1",
            "rate": [1664,1664,1664,1664,1664,1664,1664,1664,1664,1664,1664,1664,1664],
            "type": "out"
          }
        ]
      }
      ,
      {
        "id": 9,
        "name": "node_Conv4_split_0_0",
        "function": "CONV(5_5_96)",
        "length": 27,
        "port_number": 4,
        "wcet":[24883200,24883200,24883200,24883200,24883200,24883200,24883200,24883200,24883200,24883200,24883200,24883200,24883200,24883200,24883200,24883200,24883200,24883200,24883200,24883200,24883200,24883200,24883200,24883200,24883200,24883200,24883200], 
        "ports": [

          {
            "id": 0,
            "name": "IP0",
            "rate": [12960,2592,2592,2592,2592,2592,2592,2592,2592,2592,2592,2592,2592,2592,2592,2592,2592,2592,2592,2592,2592,2592,2592,0,0,0,0],
            "type": "in"
          },
          {
            "id": 1,
            "name": "OP0",
            "rate": [10368,10368,10368,10368,10368,10368,10368,10368,10368,10368,10368,10368,10368,10368,10368,10368,10368,10368,10368,10368,10368,10368,0,0,0,0,0],
            "type": "out"
          },
          {
            "id": 2,
            "name": "IP1",
            "rate": [0,10368,10368,10368,10368,10368,10368,10368,10368,10368,10368,10368,10368,10368,10368,10368,10368,10368,10368,10368,10368,10368,10368,0,0,0,0],
            "type": "in"
          },
          {
            "id": 3,
            "name": "OP1",
            "rate": [3456,3456,3456,3456,3456,3456,3456,3456,3456,3456,3456,3456,3456,3456,3456,3456,3456,3456,3456,3456,3456,3456,3456,3456,3456,3456,3456],
            "type": "out"
          }
        ]
      }
      ,
      {
        "id": 10,
        "name": "node_Relu5_s_1",
        "function": "ReLU",
        "length": 27,
        "port_number": 2,
        "wcet":[442368,442368,442368,442368,442368,442368,442368,442368,442368,442368,442368,442368,442368,442368,442368,442368,442368,442368,442368,442368,442368,442368,442368,442368,442368,442368,442368], 
        "ports": [

          {
            "id": 0,
            "name": "IP0",
            "rate": [3456,3456,3456,3456,3456,3456,3456,3456,3456,3456,3456,3456,3456,3456,3456,3456,3456,3456,3456,3456,3456,3456,3456,3456,3456,3456,3456],
            "type": "in"
          },
          {
            "id": 1,
            "name": "OP0",
            "rate": [3456,3456,3456,3456,3456,3456,3456,3456,3456,3456,3456,3456,3456,3456,3456,3456,3456,3456,3456,3456,3456,3456,3456,3456,3456,3456,3456],
            "type": "out"
          }
        ]
      }
      ,
      {
        "id": 11,
        "name": "node_LRN6_s_1",
        "function": "LRN(5)",
        "length": 27,
        "port_number": 2,
        "wcet":[1228800,1228800,1228800,1228800,1228800,1228800,1228800,1228800,1228800,1228800,1228800,1228800,1228800,1228800,1228800,1228800,1228800,1228800,1228800,1228800,1228800,1228800,1228800,1228800,1228800,1228800,1228800], 
        "ports": [

          {
            "id": 0,
            "name": "IP0",
            "rate": [3456,3456,3456,3456,3456,3456,3456,3456,3456,3456,3456,3456,3456,3456,3456,3456,3456,3456,3456,3456,3456,3456,3456,3456,3456,3456,3456],
            "type": "in"
          },
          {
            "id": 1,
            "name": "OP0",
            "rate": [3456,3456,3456,3456,3456,3456,3456,3456,3456,3456,3456,3456,3456,3456,3456,3456,3456,3456,3456,3456,3456,3456,3456,3456,3456,3456,3456],
            "type": "out"
          }
        ]
      }
      ,
      {
        "id": 12,
        "name": "node_MaxPool7_s_1",
        "function": "MAXPOOL(3_3_27)",
        "length": 13,
        "port_number": 4,
        "wcet":[808704,808704,808704,808704,808704,808704,808704,808704,808704,808704,808704,808704,808704], 
        "ports": [

          {
            "id": 0,
            "name": "IP0",
            "rate": [10368,6912,6912,6912,6912,6912,6912,6912,6912,6912,6912,6912,6912],
            "type": "in"
          },
          {
            "id": 1,
            "name": "OP0",
            "rate": [27,27,27,27,27,27,27,27,27,27,27,27,0],
            "type": "out"
          },
          {
            "id": 2,
            "name": "IP1",
            "rate": [0,27,27,27,27,27,27,27,27,27,27,27,27],
            "type": "in"
          },
          {
            "id": 3,
            "name": "OP1",
            "rate": [1664,1664,1664,1664,1664,1664,1664,1664,1664,1664,1664,1664,1664],
            "type": "out"
          }
        ]
      }
      ,
      {
        "id": 13,
        "name": "node_MaxPool7_output_concat_0",
        "function": "CONCAT",
        "length": 13,
        "port_number": 3,
        "wcet":[4,4,4,4,4,4,4,4,4,4,4,4,4], 
        "ports": [

          {
            "id": 0,
            "name": "IP0",
            "rate": [1664,1664,1664,1664,1664,1664,1664,1664,1664,1664,1664,1664,1664],
            "type": "in"
          },
          {
            "id": 1,
            "name": "IP1",
            "rate": [1664,1664,1664,1664,1664,1664,1664,1664,1664,1664,1664,1664,1664],
            "type": "in"
          },
          {
            "id": 2,
            "name": "OP0",
            "rate": [0,0,0,0,0,0,0,0,0,0,0,0,43264],
            "type": "out"
          }
        ]
      }
      ,
      {
        "id": 14,
        "name": "node_Conv8",
        "function": "CONV(3_3_256)",
        "length": 13,
        "port_number": 4,
        "wcet":[34504704,34504704,34504704,34504704,34504704,34504704,34504704,34504704,34504704,34504704,34504704,34504704,34504704], 
        "ports": [

          {
            "id": 0,
            "name": "IP0",
            "rate": [9984,3328,3328,3328,3328,3328,3328,3328,3328,3328,3328,0,0],
            "type": "in"
          },
          {
            "id": 1,
            "name": "OP0",
            "rate": [6656,6656,6656,6656,6656,6656,6656,6656,6656,6656,0,0,0],
            "type": "out"
          },
          {
            "id": 2,
            "name": "IP1",
            "rate": [0,6656,6656,6656,6656,6656,6656,6656,6656,6656,6656,0,0],
            "type": "in"
          },
          {
            "id": 3,
            "name": "OP1",
            "rate": [4992,4992,4992,4992,4992,4992,4992,4992,4992,4992,4992,4992,4992],
            "type": "out"
          }
        ]
      }
      ,
      {
        "id": 15,
        "name": "node_Relu9",
        "function": "ReLU",
        "length": 13,
        "port_number": 3,
        "wcet":[1916928,1916928,1916928,1916928,1916928,1916928,1916928,1916928,1916928,1916928,1916928,1916928,1916928], 
        "ports": [

          {
            "id": 0,
            "name": "IP0",
            "rate": [4992,4992,4992,4992,4992,4992,4992,4992,4992,4992,4992,4992,4992],
            "type": "in"
          },
          {
            "id": 1,
            "name": "OP0",
            "rate": [4992,4992,4992,4992,4992,4992,4992,4992,4992,4992,4992,4992,4992],
            "type": "out"
          },
          {
            "id": 2,
            "name": "OP1",
            "rate": [4992,4992,4992,4992,4992,4992,4992,4992,4992,4992,4992,4992,4992],
            "type": "out"
          }
        ]
      }
      ,
      {
        "id": 16,
        "name": "node_Conv10",
        "function": "CONV(3_3_384)",
        "length": 13,
        "port_number": 4,
        "wcet":[25878528,25878528,25878528,25878528,25878528,25878528,25878528,25878528,25878528,25878528,25878528,25878528,25878528], 
        "ports": [

          {
            "id": 0,
            "name": "IP0",
            "rate": [14976,4992,4992,4992,4992,4992,4992,4992,4992,4992,4992,0,0],
            "type": "in"
          },
          {
            "id": 1,
            "name": "OP0",
            "rate": [9984,9984,9984,9984,9984,9984,9984,9984,9984,9984,0,0,0],
            "type": "out"
          },
          {
            "id": 2,
            "name": "IP1",
            "rate": [0,9984,9984,9984,9984,9984,9984,9984,9984,9984,9984,0,0],
            "type": "in"
          },
          {
            "id": 3,
            "name": "OP1",
            "rate": [2496,2496,2496,2496,2496,2496,2496,2496,2496,2496,2496,2496,2496],
            "type": "out"
          }
        ]
      }
      ,
      {
        "id": 17,
        "name": "node_Relu11",
        "function": "ReLU",
        "length": 13,
        "port_number": 2,
        "wcet":[479232,479232,479232,479232,479232,479232,479232,479232,479232,479232,479232,479232,479232], 
        "ports": [

          {
            "id": 0,
            "name": "IP0",
            "rate": [2496,2496,2496,2496,2496,2496,2496,2496,2496,2496,2496,2496,2496],
            "type": "in"
          },
          {
            "id": 1,
            "name": "OP0",
            "rate": [2496,2496,2496,2496,2496,2496,2496,2496,2496,2496,2496,2496,2496],
            "type": "out"
          }
        ]
      }
      ,
      {
        "id": 18,
        "name": "node_Conv10_split_2_0",
        "function": "CONV(3_3_384)",
        "length": 13,
        "port_number": 4,
        "wcet":[25878528,25878528,25878528,25878528,25878528,25878528,25878528,25878528,25878528,25878528,25878528,25878528,25878528], 
        "ports": [

          {
            "id": 0,
            "name": "IP0",
            "rate": [14976,4992,4992,4992,4992,4992,4992,4992,4992,4992,4992,0,0],
            "type": "in"
          },
          {
            "id": 1,
            "name": "OP0",
            "rate": [9984,9984,9984,9984,9984,9984,9984,9984,9984,9984,0,0,0],
            "type": "out"
          },
          {
            "id": 2,
            "name": "IP1",
            "rate": [0,9984,9984,9984,9984,9984,9984,9984,9984,9984,9984,0,0],
            "type": "in"
          },
          {
            "id": 3,
            "name": "OP1",
            "rate": [2496,2496,2496,2496,2496,2496,2496,2496,2496,2496,2496,2496,2496],
            "type": "out"
          }
        ]
      }
      ,
      {
        "id": 19,
        "name": "node_Relu11_s_3",
        "function": "ReLU",
        "length": 13,
        "port_number": 2,
        "wcet":[479232,479232,479232,479232,479232,479232,479232,479232,479232,479232,479232,479232,479232], 
        "ports": [

          {
            "id": 0,
            "name": "IP0",
            "rate": [2496,2496,2496,2496,2496,2496,2496,2496,2496,2496,2496,2496,2496],
            "type": "in"
          },
          {
            "id": 1,
            "name": "OP0",
            "rate": [2496,2496,2496,2496,2496,2496,2496,2496,2496,2496,2496,2496,2496],
            "type": "out"
          }
        ]
      }
      ,
      {
        "id": 20,
        "name": "node_Relu11_output_concat_0",
        "function": "CONCAT",
        "length": 13,
        "port_number": 3,
        "wcet":[4,4,4,4,4,4,4,4,4,4,4,4,4], 
        "ports": [

          {
            "id": 0,
            "name": "IP0",
            "rate": [2496,2496,2496,2496,2496,2496,2496,2496,2496,2496,2496,2496,2496],
            "type": "in"
          },
          {
            "id": 1,
            "name": "IP1",
            "rate": [2496,2496,2496,2496,2496,2496,2496,2496,2496,2496,2496,2496,2496],
            "type": "in"
          },
          {
            "id": 2,
            "name": "OP0",
            "rate": [0,0,0,0,0,0,0,0,0,0,0,0,64896],
            "type": "out"
          }
        ]
      }
      ,
      {
        "id": 21,
        "name": "node_Conv12",
        "function": "CONV(3_3_384)",
        "length": 13,
        "port_number": 4,
        "wcet":[34504704,34504704,34504704,34504704,34504704,34504704,34504704,34504704,34504704,34504704,34504704,34504704,34504704], 
        "ports": [

          {
            "id": 0,
            "name": "IP0",
            "rate": [14976,4992,4992,4992,4992,4992,4992,4992,4992,4992,4992,0,0],
            "type": "in"
          },
          {
            "id": 1,
            "name": "OP0",
            "rate": [9984,9984,9984,9984,9984,9984,9984,9984,9984,9984,0,0,0],
            "type": "out"
          },
          {
            "id": 2,
            "name": "IP1",
            "rate": [0,9984,9984,9984,9984,9984,9984,9984,9984,9984,9984,0,0],
            "type": "in"
          },
          {
            "id": 3,
            "name": "OP1",
            "rate": [3328,3328,3328,3328,3328,3328,3328,3328,3328,3328,3328,3328,3328],
            "type": "out"
          }
        ]
      }
      ,
      {
        "id": 22,
        "name": "node_Relu13",
        "function": "ReLU",
        "length": 13,
        "port_number": 2,
        "wcet":[851968,851968,851968,851968,851968,851968,851968,851968,851968,851968,851968,851968,851968], 
        "ports": [

          {
            "id": 0,
            "name": "IP0",
            "rate": [3328,3328,3328,3328,3328,3328,3328,3328,3328,3328,3328,3328,3328],
            "type": "in"
          },
          {
            "id": 1,
            "name": "OP0",
            "rate": [3328,3328,3328,3328,3328,3328,3328,3328,3328,3328,3328,3328,3328],
            "type": "out"
          }
        ]
      }
      ,
      {
        "id": 23,
        "name": "node_MaxPool14",
        "function": "MAXPOOL(3_3_13)",
        "length": 6,
        "port_number": 4,
        "wcet":[419328,419328,419328,419328,419328,419328], 
        "ports": [

          {
            "id": 0,
            "name": "IP0",
            "rate": [9984,6656,6656,6656,6656,6656],
            "type": "in"
          },
          {
            "id": 1,
            "name": "OP0",
            "rate": [13,13,13,13,13,0],
            "type": "out"
          },
          {
            "id": 2,
            "name": "IP1",
            "rate": [0,13,13,13,13,13],
            "type": "in"
          },
          {
            "id": 3,
            "name": "OP1",
            "rate": [1792,1792,1792,1792,1792,1792],
            "type": "out"
          }
        ]
      }
      ,
      {
        "id": 24,
        "name": "node_Gemm15",
        "function": "GEMM_NONE(1_10752,10752_4096)",
        "length": 1,
        "port_number": 2,
        "wcet":[8816640], 
        "ports": [

          {
            "id": 0,
            "name": "IP0",
            "rate": [10752],
            "type": "in"
          },
          {
            "id": 1,
            "name": "OP0",
            "rate": [4096],
            "type": "out"
          }
        ]
      }
      ,
      {
        "id": 25,
        "name": "node_Relu16",
        "function": "ReLU",
        "length": 1,
        "port_number": 2,
        "wcet":[4096], 
        "ports": [

          {
            "id": 0,
            "name": "IP0",
            "rate": [4096],
            "type": "in"
          },
          {
            "id": 1,
            "name": "OP0",
            "rate": [4096],
            "type": "out"
          }
        ]
      }
      ,
      {
        "id": 26,
        "name": "node_Gemm18",
        "function": "GEMM_NONE(1_4096,4096_4096)",
        "length": 1,
        "port_number": 2,
        "wcet":[3358720], 
        "ports": [

          {
            "id": 0,
            "name": "IP0",
            "rate": [4096],
            "type": "in"
          },
          {
            "id": 1,
            "name": "OP0",
            "rate": [4096],
            "type": "out"
          }
        ]
      }
      ,
      {
        "id": 27,
        "name": "node_Relu19",
        "function": "ReLU",
        "length": 1,
        "port_number": 2,
        "wcet":[4096], 
        "ports": [

          {
            "id": 0,
            "name": "IP0",
            "rate": [4096],
            "type": "in"
          },
          {
            "id": 1,
            "name": "OP0",
            "rate": [4096],
            "type": "out"
          }
        ]
      }
      ,
      {
        "id": 28,
        "name": "node_Gemm21",
        "function": "GEMM_NONE(1_4096,4096_1000)",
        "length": 1,
        "port_number": 2,
        "wcet":[827392], 
        "ports": [

          {
            "id": 0,
            "name": "IP0",
            "rate": [4096],
            "type": "in"
          },
          {
            "id": 1,
            "name": "OP0",
            "rate": [1000],
            "type": "out"
          }
        ]
      }
      ,
      {
        "id": 29,
        "name": "node_Softmax22",
        "function": "SOFTMAX",
        "length": 1,
        "port_number": 2,
        "wcet":[1000], 
        "ports": [

          {
            "id": 0,
            "name": "IP0",
            "rate": [1000],
            "type": "in"
          },
          {
            "id": 1,
            "name": "OP0",
            "rate": [1000],
            "type": "out"
          }
        ]
      }
      ,
      {
        "id": 30,
        "name": "prob_1",
        "function": "WRITE",
        "length": 1,
        "port_number": 1,
        "wcet":[1], 
        "ports": [

          {
            "id": 0,
            "name": "IP0",
            "rate": [1000],
            "type": "in"
          }
        ]
      }

    ],
    "edges": [
      {
        "id": 0,
        "name": "0to2",
        "src": [0,0],
        "dst": [1,0]
      }
      ,
      {
        "id": 1,
        "name": "2to2_1",
        "src": [1,1],
        "dst": [1,2]
      }
      ,
      {
        "id": 2,
        "name": "2to3",
        "src": [1,3],
        "dst": [2,0]
      }
      ,
      {
        "id": 3,
        "name": "3to4",
        "src": [2,1],
        "dst": [3,0]
      }
      ,
      {
        "id": 4,
        "name": "4to5",
        "src": [3,1],
        "dst": [4,0]
      }
      ,
      {
        "id": 5,
        "name": "5to5_5",
        "src": [4,1],
        "dst": [4,2]
      }
      ,
      {
        "id": 6,
        "name": "5to6",
        "src": [4,3],
        "dst": [5,0]
      }
      ,
      {
        "id": 7,
        "name": "6to6_7",
        "src": [5,1],
        "dst": [5,2]
      }
      ,
      {
        "id": 8,
        "name": "5to25",
        "src": [4,4],
        "dst": [9,0]
      }
      ,
      {
        "id": 9,
        "name": "25to25_9",
        "src": [9,1],
        "dst": [9,2]
      }
      ,
      {
        "id": 10,
        "name": "6to7",
        "src": [5,3],
        "dst": [6,0]
      }
      ,
      {
        "id": 11,
        "name": "25to27",
        "src": [9,3],
        "dst": [10,0]
      }
      ,
      {
        "id": 12,
        "name": "7to8",
        "src": [6,1],
        "dst": [7,0]
      }
      ,
      {
        "id": 13,
        "name": "27to28",
        "src": [10,1],
        "dst": [11,0]
      }
      ,
      {
        "id": 14,
        "name": "8to9",
        "src": [7,1],
        "dst": [8,0]
      }
      ,
      {
        "id": 15,
        "name": "9to9_15",
        "src": [8,1],
        "dst": [8,2]
      }
      ,
      {
        "id": 16,
        "name": "28to29",
        "src": [11,1],
        "dst": [12,0]
      }
      ,
      {
        "id": 17,
        "name": "29to29_17",
        "src": [12,1],
        "dst": [12,2]
      }
      ,
      {
        "id": 18,
        "name": "9to26",
        "src": [8,3],
        "dst": [13,0]
      }
      ,
      {
        "id": 19,
        "name": "29to26",
        "src": [12,3],
        "dst": [13,1]
      }
      ,
      {
        "id": 20,
        "name": "26to10",
        "src": [13,2],
        "dst": [14,0]
      }
      ,
      {
        "id": 21,
        "name": "10to10_21",
        "src": [14,1],
        "dst": [14,2]
      }
      ,
      {
        "id": 22,
        "name": "10to11",
        "src": [14,3],
        "dst": [15,0]
      }
      ,
      {
        "id": 23,
        "name": "11to12",
        "src": [15,1],
        "dst": [16,0]
      }
      ,
      {
        "id": 24,
        "name": "12to12_24",
        "src": [16,1],
        "dst": [16,2]
      }
      ,
      {
        "id": 25,
        "name": "11to30",
        "src": [15,2],
        "dst": [18,0]
      }
      ,
      {
        "id": 26,
        "name": "30to30_26",
        "src": [18,1],
        "dst": [18,2]
      }
      ,
      {
        "id": 27,
        "name": "12to13",
        "src": [16,3],
        "dst": [17,0]
      }
      ,
      {
        "id": 28,
        "name": "30to32",
        "src": [18,3],
        "dst": [19,0]
      }
      ,
      {
        "id": 29,
        "name": "13to31",
        "src": [17,1],
        "dst": [20,0]
      }
      ,
      {
        "id": 30,
        "name": "32to31",
        "src": [19,1],
        "dst": [20,1]
      }
      ,
      {
        "id": 31,
        "name": "31to14",
        "src": [20,2],
        "dst": [21,0]
      }
      ,
      {
        "id": 32,
        "name": "14to14_32",
        "src": [21,1],
        "dst": [21,2]
      }
      ,
      {
        "id": 33,
        "name": "14to15",
        "src": [21,3],
        "dst": [22,0]
      }
      ,
      {
        "id": 34,
        "name": "15to16",
        "src": [22,1],
        "dst": [23,0]
      }
      ,
      {
        "id": 35,
        "name": "16to16_35",
        "src": [23,1],
        "dst": [23,2]
      }
      ,
      {
        "id": 36,
        "name": "16to17",
        "src": [23,3],
        "dst": [24,0]
      }
      ,
      {
        "id": 37,
        "name": "17to18",
        "src": [24,1],
        "dst": [25,0]
      }
      ,
      {
        "id": 38,
        "name": "18to20",
        "src": [25,1],
        "dst": [26,0]
      }
      ,
      {
        "id": 39,
        "name": "20to21",
        "src": [26,1],
        "dst": [27,0]
      }
      ,
      {
        "id": 40,
        "name": "21to23",
        "src": [27,1],
        "dst": [28,0]
      }
      ,
      {
        "id": 41,
        "name": "23to24",
        "src": [28,1],
        "dst": [29,0]
      }
      ,
      {
        "id": 42,
        "name": "24to1",
        "src": [29,1],
        "dst": [30,0]
      }

    ]
}
