(lp0
(I314912997
I58870232736
tp1
a(I437894251
I65706573796
tp2
a(I304213289
I61776006928
tp3
a(I298010011
I58135966920
tp4
a(I308885613
I55286457336
tp5
a(I599805917
I101683670544
tp6
a(I342324057
I52959497952
tp7
a(I359679468
I55577809704
tp8
a(I449992922
I80113930600
tp9
a(I328066168
I50784879944
tp10
a(I433589889
I77233833912
tp11
a(I303644897
I49505778728
tp12
a(I301656389
I61250175088
tp13
a(I323309512
I57835362440
tp14
a(I298792533
I53512961016
tp15
a(I395924483
I54771199136
tp16
a(I309645638
I36832918336
tp17
a(I342707187
I61218393240
tp18
a(I297146331
I55589254512
tp19
a(I428501518
I76345376936
tp20
a(I439239788
I78221315656
tp21
a(I400998410
I81115641688
tp22
a(I316631844
I51556312968
tp23
a(I326313163
I66195595808
tp24
a(I313648044
I53622119400
tp25
a(I414510035
I70559503488
tp26
a(I420839266
I88463809576
tp27
a(I299696781
I60864894768
tp28
a(I295633890
I57684693768
tp29
a(I357879833
I69645810504
tp30
a(I435117074
I70551620168
tp31
a(I340448312
I58102382664
tp32
a(I441015886
I59139485760
tp33
a(I341774072
I58313325384
tp34
a(I327115008
I55865636232
tp35
a(I292538305
I47728914088
tp36
a(I301539667
I61198422368
tp37
a(I311975639
I55825757272
tp38
a(I383727468
I80728312392
tp39
a(I303999369
I56858035584
tp40
a(I336709981
I49388171352
tp41
a(I412821568
I55368806664
tp42
a(I432323050
I73563022488
tp43
a(I299324741
I58396274760
tp44
a(I297350034
I50876571480
tp45
a(I313364397
I58577940576
tp46
a(I344941962
I64378668216
tp47
a(I300909985
I56285942848
tp48
a(I318844680
I54480633288
tp49
a(I327593447
I49416718484
tp50
a(I355175540
I77650741608
tp51
a(I294189184
I59763623048
tp52
a(I372352599
I60498170088
tp53
a(I326978592
I61089599496
tp54
a(I433600391
I84149482440
tp55
a(I416391228
I70855597032
tp56
a(I377272271
I70334806352
tp57
a(I494144392
I72079312776
tp58
a(I485590831
I49457232868
tp59
a(I523085656
I97162937032
tp60
a(I325338893
I52934349608
tp61
a(I440076057
I67806742752
tp62
a(I300228294
I53773142952
tp63
a(I456767707
I73984703848
tp64
a(I326324220
I55724397288
tp65
a(I343201389
I64071207264
tp66
a(I355438070
I69173351688
tp67
a(I356071225
I69291472968
tp68
a(I304276971
I56912432112
tp69
a(I507126663
I77998417584
tp70
a(I437011503
I77815803096
tp71
a(I462269157
I71172611712
tp72
a(I575688516
I83824869192
tp73
a(I490635810
I83325046488
tp74
a(I338537343
I49661109240
tp75
a(I436538022
I81256276056
tp76
a(I295303691
I52895209624
tp77
a(I355628900
I63508731208
tp78
a(I315156138
I66478015272
tp79
a(I297711202
I53323101800
tp80
a(I326827230
I53211236808
tp81
a(I499103691
I92744362992
tp82
a(I307746067
I62459534048
tp83
a(I432927893
I77131981816
tp84
a(I361374226
I51472777568
tp85
a(I345858471
I61786658904
tp86
a(I386170772
I78144774568
tp87
a(I306008507
I69486212776
tp88
a(I526146052
I72456524200
tp89
a(I321677751
I62681019720
tp90
a(I321084835
I48404334148
tp91
a(I379111647
I73710879432
tp92
a(I315443557
I58967930656
tp93
a(I449842424
I69267568456
tp94
a(I296105284
I55401111784
tp95
a(I433963154
I84257592456
tp96
a(I356147171
I57898660328
tp97
a(I416547919
I55902686916
tp98
a(I393456065
I70158651448
tp99
a(I338525371
I60499045784
tp100
a(I383528847
I74551562952
tp101
a(I528095374
I106555678328
tp102
a(I297218237
I55579675616
tp103
a(I429424357
I86803319408
tp104
a(I300082118
I48931270088
tp105
a(I318738710
I54453746808
tp106
a(I342237525
I58411022928
tp107
a(I296061491
I53040033304
tp108
a(I315319510
I58937612248
tp109
a(I357394577
I60964440624
tp110
a(I298627165
I58262593608
tp111
a(I293380353
I45489751584
tp112
a(I355779001
I63553707704
tp113
a(I511078120
I94953550408
tp114
a(I298722410
I53496835048
tp115
a(I489287878
I98783045048
tp116
a(I295250167
I57601100232
tp117
a(I374109493
I63772131792
tp118
a(I433478224
I80692887304
tp119
a(I348420734
I70594818808
tp120
a(I389213048
I75647796744
tp121
a(I357462929
I63831595192
tp122
a(I301741198
I58867267464
tp123
a(I454693454
I77292231480
tp124
a(I459784977
I81852175800
tp125
a(I432755845
I84007483848
tp126
a(I342211374
I55649544648
tp127
a(I352424297
I62945423800
tp128
a(I437128751
I84832457160
tp129
a(I360875711
I61538517216
tp130
a(I330900829
I56509458960
tp131
a(I402657636
I78232026120
tp132
a(I384323772
I62411006088
tp133
a(I463254966
I86165149272
tp134
a(I437736293
I77937755896
tp135
a(I356356604
I69343328136
tp136
a(I311362539
I63198052128
tp137
a(I501919602
I77188091832
tp138
a(I394228974
I63990971208
tp139
a(I437164196
I81348918632
tp140
a(I358536385
I61140793008
tp141
a(I359845829
I64255017592
tp142
a(I301309475
I61205917408
tp143
a(I503560301
I85506210576
tp144
a(I458857786
I70645235960
tp145
a(I385611584
I71856268424
tp146
a(I419495228
I71391088872
tp147
a(I356777277
I69388725192
tp148
a(I320865784
I72803051144
tp149
a(I349760812
I76462428840
tp150
a(I463232446
I71313260120
tp151
a(I435572188
I84555387144
tp152
a(I410551169
I48504235132
tp153
a(I435377677
I70570731688
tp154
a(I434226890
I66910146808
tp155
a(I434001973
I77313531896
tp156
a(I316697055
I46503804408
tp157
a(I433799204
I77274515272
tp158
a(I411181572
I79873431432
tp159
a(I444678635
I56026930268
tp160
a(I415737028
I70769365032
tp161
a(I309447936
I60340308360
tp162
a(I362445003
I61806507072
tp163
a(I322700637
I52546195368
tp164
a(I457076719
I77688536160
tp165
a(I435637834
I77601437672
tp166
a(I470578483
I72430566224
tp167
a(I396702308
I70745144776
tp168
a(I464404618
I86373044920
tp169
a(I308519977
I62636889488
tp170
a(I299829280
I53680970888
tp171
a(I360892479
I48545109636
tp172
a(I324252944
I52775752328
tp173
a(I290420385
I52029175608
tp174
a(I358165214
I63973669672
tp175
a(I327165608
I61131821000
tp176
a(I413464026
I80276589960
tp177
a(I312344104
I58396853704
tp178
a(I313454171
I53574947136
tp179
a(I317730293
I67002616472
tp180
a(I416342462
I70840043064
tp181
a(I357208929
I72378458448
tp182
a(I297806532
I53336556360
tp183
a(I346246209
I70175557968
tp184
a(I492371094
I79698260808
tp185
a(I345215679
I56137082088
tp186
a(I295637369
I52943586232
tp187
a(I433372276
I84133338120
tp188
a(I357291298
I60954888792
tp189
a(I371355228
I54386418120
tp190
a(I355186572
I63415415880
tp191
a(I390125784
I66455484360
tp192
a(I359258455
I61261956768
tp193
a(I294512265
I59824276368
tp194
a(I434028661
I63383191512
tp195
a(I316957093
I56709842936
tp196
a(I339303106
I57909913176
tp197
a(I404874892
I65683189768
tp198
a(I444937980
I75672181608
tp199
a(I342087797
I72060538904
tp200
a(I353582517
I51821393496
tp201
a(I314983572
I63922258728
tp202
a(I373599198
I75646080888
tp203
a(I497942355
I80577140328
tp204
a(I389858284
I60163532456
tp205
a(I420254835
I81618176328
tp206
a(I301079982
I63546459624
tp207
a(I385803808
I68812626056
tp208
a(I303168981
I59137686600
tp209
a(I551406632
I97931651080
tp210
a(I438739334
I67621658776
tp211
a(I462115176
I85958768712
tp212
a(I433490254
I87601015928
tp213
a(I298340543
I60586303168
tp214
a(I523366089
I88836900720
tp215
a(I387572947
I69145801880
tp216
a(I344193230
I58742968248
tp217
a(I436307293
I84696463944
tp218
a(I303967705
I54419695928
tp219
a(I503232559
I105608970040
tp220
a(I470692848
I102595965576
tp221
a(I292497667
I52381379480
tp222
a(I293307653
I50198217552
tp223
a(I394754556
I51454513416
tp224
a(I351469427
I65572942256
tp225
a(I508950807
I72175650588
tp226
a(I432216848
I87365192968
tp227
a(I304183236
I59305121160
tp228
a(I298771913
I60676528528
tp229
a(I445734722
I75801552984
tp230
a(I413284947
I76942654896
tp231
a(I300950487
I43038631068
tp232
a(I315331518
I56420101416
tp233
a(I293945809
I57346815816
tp234
a(I463394629
I93601463408
tp235
a(I484233362
I93891311112
tp236
a(I363649145
I64900474168
tp237
a(I315195752
I48831370312
tp238
a(I548834484
I84324781416
tp239
a(I297085186
I55596568312
tp240
a(I316203984
I54044092680
tp241
a(I402356928
I71700706056
tp242
a(I384135947
I65460314304
tp243
a(I431381019
I63017805624
tp244
a(I359261440
I61281708168
tp245
a(I316889097
I45283555188
tp246
a(I294700542
I52774223400
tp247
a(I317402390
I64380361528
tp248
a(I373762545
I66715027128
tp249
a(I363842676
I70775757960
tp250
a(I436502647
I84737756232
tp251
a(I295863231
I48232551528
tp252
a(I356231966
I57927071048
tp253
a(I438571145
I78117700408
tp254
a(I384154480
I74672755848
tp255
a(I388501396
I59958886760
tp256
a(I295333621
I55252398112
tp257
a(I416788668
I67588823688
tp258
a(I318037597
I59423213536
tp259
a(I485752500
I86398089288
tp260
a(I299555401
I56036290432
tp261
a(I381944406
I77310629688
tp262
a(I293876342
I57307327752
tp263
a(I414656923
I83860626848
tp264
a(I312751500
I53464714728
tp265
a(I434137184
I87760330888
tp266
a(I462733206
I97164011496
tp267
a(I432058887
I73511754144
tp268
a(I348590556
I59477940456
tp269
a(I307506788
I62416539688
tp270
a(I309441894
I60334603656
tp271
a(I323776452
I57872523720
tp272
a(I350560906
I71048848088
tp273
a(I301690301
I56416514912
tp274
a(I327992993
I61291087040
tp275
a(I433842921
I80749243392
tp276
a(I355379779
I60622625280
tp277
a(I298890850
I55917998968
tp278
a(I437978801
I81521316032
tp279
a(I340617509
I66310028616
tp280
a(I326888501
I58454211064
tp281
a(I492105707
I91469359856
tp282
a(I294861310
I52802898728
tp283
a(I303723359
I64088488760
tp284
a(I434063789
I77328437752
tp285
a(I300294182
I56187415256
tp286
a(I382226562
I71252616696
tp287
a(I434292660
I70412295048
tp288
a(I528496994
I102401448456
tp289
a(I324050391
I63145154760
tp290
a(I294106778
I43269749160
tp291
a(I423784018
I72109981272
tp292
a(I300489552
I58630660872
tp293
a(I433947197
I80780019296
tp294
a(I365986853
I62392719312
tp295
a(I431447383
I80315491600
tp296
a(I333200068
I64896558984
tp297
a(I388662322
I72443443576
tp298
a(I320126305
I59836134208
tp299
a(I358457155
I66889010608
tp300
a.