(lp0
(I291219752
I49836707784
tp1
a(I291645320
I49903647048
tp2
a(I291734401
I49930599216
tp3
a(I292437343
I50032934112
tp4
a(I292503591
I52379553624
tp5
a(I292503591
I57059611080
tp6
a(I292631572
I57100305672
tp7
a(I292651888
I45397739144
tp8
a(I292686384
I52431631752
tp9
a(I292979509
I57174142536
tp10
a(I293131539
I54853862064
tp11
a(I293171125
I54861854368
tp12
a(I293232158
I54873084440
tp13
a(I293281944
I45497211336
tp14
a(I293306989
I54872222944
tp15
a(I293345090
I50204057688
tp16
a(I293447952
I57257183112
tp17
a(I293668953
I45544914144
tp18
a(I293842744
I62037721480
tp19
a(I293845573
I50288133072
tp20
a(I294188164
I50338263720
tp21
a(I294256070
I52703098408
tp22
a(I294406411
I52733895704
tp23
a(I294479366
I59825046328
tp24
a(I294539869
I52760771192
tp25
a(I294548643
I55126446000
tp26
a(I294566375
I50417107488
tp27
a(I294717544
I57499712136
tp28
a(I294904024
I57550820616
tp29
a(I294916282
I52807908200
tp30
a(I294955552
I57556860552
tp31
a(I294982151
I59929312768
tp32
a(I295175852
I42208703128
tp33
a(I295175852
I44573819384
tp34
a(I295294958
I52882855336
tp35
a(I295561766
I42262731088
tp36
a(I295619343
I41099373696
tp37
a(I295669714
I43453103784
tp38
a(I295693735
I41101772608
tp39
a(I295797106
I45844875320
tp40
a(I295861359
I52989713112
tp41
a(I295929728
I57743902344
tp42
a(I295984181
I50627846736
tp43
a(I296109095
I48295367528
tp44
a(I296130645
I57790041288
tp45
a(I296154631
I44745606676
tp46
a(I296230477
I41201611120
tp47
a(I296362122
I53081487720
tp48
a(I296439679
I53083997912
tp49
a(I296525925
I37656938868
tp50
a(I296703241
I35309009564
tp51
a(I296747802
I53142017640
tp52
a(I296758809
I55525634304
tp53
a(I296862513
I43655821080
tp54
a(I296996037
I40094910492
tp55
a(I297091115
I37734510428
tp56
a(I297168271
I41326213504
tp57
a(I297230189
I53211434872
tp58
a(I297357161
I41313080144
tp59
a(I297691731
I42587854188
tp60
a(I297749707
I48558326248
tp61
a(I297808185
I43806132888
tp62
a(I297841097
I44979403964
tp63
a(I297967541
I48592782248
tp64
a(I298034760
I43815927048
tp65
a(I298112203
I51001678272
tp66
a(I298129373
I40251998844
tp67
a(I298223301
I45059574636
tp68
a(I298276231
I55808624272
tp69
a(I298547365
I45065073388
tp70
a(I298819763
I39132950152
tp71
a(I298853467
I40351288692
tp72
a(I298941508
I60713765288
tp73
a(I299024829
I58349618376
tp74
a(I299131368
I42771495528
tp75
a(I299236058
I40401790704
tp76
a(I299541311
I51240915936
tp77
a(I299999846
I44098899432
tp78
a(I300090336
I53756073864
tp79
a(I300257917
I56158848736
tp80
a(I300360524
I48972019208
tp81
a(I300419181
I45346185996
tp82
a(I300466061
I56200937312
tp83
a(I300750830
I34609752488
tp84
a(I300808954
I46621882616
tp85
a(I301098841
I39435800456
tp86
a(I301104602
I44269688616
tp87
a(I301173105
I51503940528
tp88
a(I301273786
I58773814920
tp89
a(I301307131
I49120152808
tp90
a(I301594372
I53994944840
tp91
a(I301871025
I61307099088
tp92
a(I302002757
I54078415480
tp93
a(I302052545
I34755544568
tp94
a(I302182167
I54117410520
tp95
a(I302232701
I33563594436
tp96
a(I302419507
I54155472920
tp97
a(I303105401
I32426554672
tp98
a(I303177682
I54250838120
tp99
a(I303243419
I38488888604
tp100
a(I303353531
I47011595920
tp101
a(I303614432
I48286383240
tp102
a(I303768347
I64120488824
tp103
a(I303882509
I59270986056
tp104
a(I304094776
I43467639848
tp105
a(I304235494
I61768858808
tp106
a(I304294554
I54481305192
tp107
a(I304599600
I54542492808
tp108
a(I304810698
I36241750416
tp109
a(I304820362
I47227901432
tp110
a(I304824618
I38688666720
tp111
a(I304943121
I57019854912
tp112
a(I305109026
I36303670384
tp113
a(I305462501
I52232185296
tp114
a(I305574476
I52245859176
tp115
a(I305577748
I32679963560
tp116
a(I305605493
I51018481660
tp117
a(I305620563
I43666942188
tp118
a(I305784776
I51078279592
tp119
a(I306001267
I36410879780
tp120
a(I306019710
I38826380688
tp121
a(I306127550
I46224611168
tp122
a(I306755549
I47541501376
tp123
a(I307047252
I43888468728
tp124
a(I307073495
I54959028568
tp125
a(I307129748
I43878285688
tp126
a(I307168812
I50045937288
tp127
a(I307277697
I38978655876
tp128
a(I307303907
I50091151208
tp129
a(I307353695
I57467812688
tp130
a(I307584723
I52589035392
tp131
a(I308306536
I41583939240
tp132
a(I308462855
I57678677648
tp133
a(I308473219
I40387272200
tp134
a(I309104244
I47902218216
tp135
a(I309746890
I57922606648
tp136
a(I309998083
I48027460304
tp137
a(I310834235
I55624628248
tp138
a(I310837872
I50641229448
tp139
a(I311405125
I49505440788
tp140
a(I312285266
I48389379640
tp141
a(I312376365
I53381094288
tp142
a(I312772154
I39656380064
tp143
a(I313979297
I48654026272
tp144
a(I314060665
I48658975328
tp145
a(I314298501
I51198460968
tp146
a(I314957657
I56327828920
tp147
a(I315749803
I61549425864
tp148
a(I317552332
I42839433912
tp149
a(I318709145
I49351167328
tp150
a(I318749101
I64682639408
tp151
a(I319622626
I52039647688
tp152
a(I319682700
I54610684008
tp153
a(I320544241
I62470741320
tp154
a(I320684781
I54774995856
tp155
a(I321391268
I36907219784
tp156
a(I322282307
I60236473136
tp157
a(I322376597
I47312718936
tp158
a(I323293208
I55235410632
tp159
a(I323817446
I41053241072
tp160
a(I324211436
I55392996456
tp161
a(I324908839
I50300939696
tp162
a(I325103844
I46429126968
tp163
a(I325298458
I49065868432
tp164
a(I325427775
I66007631808
tp165
a(I325479281
I60811485632
tp166
a(I326154955
I58325026328
tp167
a(I330236603
I61677933680
tp168
a(I333545449
I62287792384
tp169
a(I334473240
I53095864488
tp170
a(I334987852
I54488862088
tp171
a(I337864063
I65802857544
tp172
a(I338058241
I65811236040
tp173
a(I342894509
I39333369656
tp174
a(I343757997
I50400798936
tp175
a(I343768182
I69682884408
tp176
a(I345245473
I58895748912
tp177
a(I345388863
I46476248964
tp178
a(I346110590
I50745505128
tp179
a(I348638622
I51111183336
tp180
a(I349956111
I68117117640
tp181
a(I351657089
I65634083264
tp182
a(I352051729
I41759679932
tp183
a(I352249968
I62898821256
tp184
a(I352335435
I62940607128
tp185
a(I352996164
I60221728680
tp186
a(I353027504
I51734179464
tp187
a(I353530084
I51792220104
tp188
a(I354386172
I57608778888
tp189
a(I354791927
I63368848600
tp190
a(I354808527
I66207300816
tp191
a(I355153834
I69103802376
tp192
a(I355263725
I66291057248
tp193
a(I356262737
I63624773560
tp194
a(I356562402
I63677059560
tp195
a(I356604066
I63691874664
tp196
a(I356883439
I46567796360
tp197
a(I357757307
I72488064928
tp198
a(I357804812
I55290771112
tp199
a(I357863634
I49562304792
tp200
a(I358086225
I55316905248
tp201
a(I358111991
I55347052720
tp202
a(I358301456
I58240028168
tp203
a(I358441174
I58256934088
tp204
a(I358598092
I52553624136
tp205
a(I359460305
I58424027048
tp206
a(I360745694
I48533930496
tp207
a(I362368804
I51654481208
tp208
a(I362522944
I73426498568
tp209
a(I363918918
I62042691192
tp210
a(I364240439
I62100416160
tp211
a(I365279174
I56430451096
tp212
a(I365766736
I56509036040
tp213
a(I366474528
I65422434696
tp214
a(I367595082
I62682220824
tp215
a(I367874619
I65660337432
tp216
a(I372404883
I63500687232
tp217
a(I372664013
I47136763220
tp218
a(I373614623
I47258348300
tp219
a(I376715342
I50651583552
tp220
a(I377288480
I61253247368
tp221
a(I381624039
I60466244172
tp222
a(I383812311
I74607917640
tp223
a(I385073072
I50189945224
tp224
a(I385620936
I71873005512
tp225
a(I387160179
I69059394072
tp226
a(I388664346
I66199905816
tp227
a(I388779342
I63120118728
tp228
a(I388788590
I63125376968
tp229
a(I388996554
I66266914200
tp230
a(I393462723
I79615151328
tp231
a(I393718352
I54456638600
tp232
a(I400450987
I55382956000
tp233
a(I409489229
I76252370144
tp234
a(I413115953
I67003303208
tp235
a(I413758175
I70414591968
tp236
a(I423336957
I75413587320
tp237
a(I424758118
I72253804152
tp238
a(I425956432
I86109866888
tp239
a(I426741561
I86281459728
tp240
a(I430478800
I83570360328
tp241
a(I430581053
I57747255804
tp242
a(I430910528
I87103934728
tp243
a(I431402606
I80307724952
tp244
a(I432375164
I70090974728
tp245
a(I432545669
I80502755744
tp246
a(I432656591
I73597399776
tp247
a(I432862001
I59749237904
tp248
a(I432912853
I77110776056
tp249
a(I434018118
I80758837080
tp250
a(I434347891
I77359886744
tp251
a(I434488870
I77391726248
tp252
a(I434537119
I68709873132
tp253
a(I434747533
I58298003004
tp254
a(I435432619
I63616949304
tp255
a(I435461923
I81043032880
tp256
a(I435690374
I84581799816
tp257
a(I436809055
I67291029488
tp258
a(I438203939
I81544948784
tp259
a(I439128795
I81732517488
tp260
a(I439186022
I67671324952
tp261
a(I439214450
I78203671528
tp262
a(I439643640
I74774224968
tp263
a(I440160899
I62514097708
tp264
a(I441033249
I74992449840
tp265
a(I442486606
I54008938008
tp266
a(I443830862
I79016937640
tp267
a(I445301564
I72151215368
tp268
a(I447323234
I86807815176
tp269
a(I450743139
I80259971352
tp270
a(I452256066
I80510130024
tp271
a(I460108833
I78189723312
tp272
a(I488333240
I79044013448
tp273
a(I495493314
I88124873832
tp274
a(I557387240
I72264383368
tp275
a(I653413908
I105469534728
tp276
a.