digraph mp3 {
	rankdir=LR;
	mp3_OWP4 [label="OWP4"];
	mp3_SplitFrame [label="SplitFrame"];
	mp3_Requant1L [label="Requant1L"];
	mp3_Requant1R [label="Requant1R"];
	mp3_Requant2L [label="Requant2L"];
	mp3_Requant2R [label="Requant2R"];
	mp3_Reorder1L [label="Reorder1L"];
	mp3_Reorder1R [label="Reorder1R"];
	mp3_Reorder2L [label="Reorder2L"];
	mp3_Reorder2R [label="Reorder2R"];
	mp3_Stereo1 [label="Stereo1"];
	mp3_Stereo2 [label="Stereo2"];
	mp3_AntiAlias1L [label="AntiAlias1L"];
	mp3_AntiAlias1R [label="AntiAlias1R"];
	mp3_AntiAlias2L [label="AntiAlias2L"];
	mp3_AntiAlias2R [label="AntiAlias2R"];
	mp3_Hybrid1L [label="Hybrid1L"];
	mp3_Hybrid1R [label="Hybrid1R"];
	mp3_Hybrid2L [label="Hybrid2L"];
	mp3_Hybrid2R [label="Hybrid2R"];
	mp3_FreqInv1L [label="FreqInv1L"];
	mp3_FreqInv1R [label="FreqInv1R"];
	mp3_FreqInv2L [label="FreqInv2L"];
	mp3_FreqInv2R [label="FreqInv2R"];
	mp3_Subband1 [label="Subband1"];
	mp3_Subband2 [label="Subband2"];
	mp3_OWP5 [label="OWP5"];
	mp3_OWP4 -> mp3_SplitFrame [dir=forward]
	mp3_OWP4 -> mp3_SplitFrame [dir=forward]
	mp3_OWP4 -> mp3_SplitFrame [dir=forward]
	mp3_SplitFrame -> mp3_Requant1L [dir=forward]
	mp3_SplitFrame -> mp3_Requant1R [dir=forward]
	mp3_SplitFrame -> mp3_Requant2L [dir=forward]
	mp3_SplitFrame -> mp3_Requant2R [dir=forward]
	mp3_SplitFrame -> mp3_Stereo1 [dir=forward]
	mp3_SplitFrame -> mp3_Stereo2 [dir=forward]
	mp3_SplitFrame -> mp3_Subband1 [dir=forward]
	mp3_SplitFrame -> mp3_Subband2 [dir=forward]
	mp3_SplitFrame -> mp3_Requant1L [dir=forward]
	mp3_SplitFrame -> mp3_Requant1R [dir=forward]
	mp3_SplitFrame -> mp3_Requant2L [dir=forward]
	mp3_SplitFrame -> mp3_Requant2R [dir=forward]
	mp3_Requant1L -> mp3_Reorder1L [dir=forward]
	mp3_Requant1L -> mp3_Reorder1L [dir=forward]
	mp3_Requant1R -> mp3_Reorder1R [dir=forward]
	mp3_Requant1R -> mp3_Reorder1R [dir=forward]
	mp3_Requant2L -> mp3_Reorder2L [dir=forward]
	mp3_Requant2L -> mp3_Reorder2L [dir=forward]
	mp3_Requant2R -> mp3_Reorder2R [dir=forward]
	mp3_Requant2R -> mp3_Reorder2R [dir=forward]
	mp3_Reorder1L -> mp3_Stereo1 [dir=forward]
	mp3_Reorder1R -> mp3_Stereo1 [dir=forward]
	mp3_Reorder2L -> mp3_Stereo2 [dir=forward]
	mp3_Reorder2R -> mp3_Stereo2 [dir=forward]
	mp3_Stereo1 -> mp3_AntiAlias1L [dir=forward]
	mp3_Stereo1 -> mp3_AntiAlias1R [dir=forward]
	mp3_Stereo2 -> mp3_AntiAlias2L [dir=forward]
	mp3_Stereo2 -> mp3_AntiAlias2R [dir=forward]
	mp3_AntiAlias1L -> mp3_Hybrid1L [dir=forward]
	mp3_AntiAlias1R -> mp3_Hybrid1R [dir=forward]
	mp3_AntiAlias2L -> mp3_Hybrid2L [dir=forward]
	mp3_AntiAlias2R -> mp3_Hybrid2R [dir=forward]
	mp3_Hybrid1L -> mp3_Hybrid2L [dir=forward]
	mp3_Hybrid1L -> mp3_FreqInv1L [dir=forward]
	mp3_Hybrid1R -> mp3_Hybrid2R [dir=forward]
	mp3_Hybrid1R -> mp3_FreqInv1R [dir=forward]
	mp3_Hybrid2L -> mp3_Hybrid1L [dir=forward]
	mp3_Hybrid2L -> mp3_FreqInv2L [dir=forward]
	mp3_Hybrid2R -> mp3_Hybrid1R [dir=forward]
	mp3_Hybrid2R -> mp3_FreqInv2R [dir=forward]
	mp3_FreqInv1L -> mp3_Subband1 [dir=forward]
	mp3_FreqInv1R -> mp3_Subband1 [dir=forward]
	mp3_FreqInv2L -> mp3_Subband2 [dir=forward]
	mp3_FreqInv2R -> mp3_Subband2 [dir=forward]
	mp3_Subband1 -> mp3_Subband2 [dir=forward]
	mp3_Subband1 -> mp3_OWP5 [dir=forward]
	mp3_Subband1 -> mp3_OWP5 [dir=forward]
	mp3_Subband2 -> mp3_Subband1 [dir=forward]
	mp3_Subband2 -> mp3_OWP5 [dir=forward]
}